Booking 1 Surfers 101 103 
Booking 2 Surfers 102 
Booking 3 Burleigh 101 
Change 1 Surfers 103 
Booking 4 Surfers 103 
Cancel 3
Booking rejected
Surfers 101 
Surfers 102 Jan 24 4 
Surfers 103 Jan 25 2 Jan 27 3 