Booking 0 Surfers 101 
Booking 1 Surfers 101 
Booking 2 Surfers 101 
Booking 3 Surfers 101 
Booking 4 Surfers 101 
Booking 5 Surfers 101 
Booking 6 Surfers 101 
Booking 7 Surfers 101 
Booking 8 Surfers 101 
Booking 9 Surfers 101 
Booking 10 Surfers 101 
Booking 11 Surfers 101 
Booking 12 Surfers 101 
Booking 13 Surfers 101 
Booking 14 Surfers 101 
Booking 15 Surfers 101 
Booking 16 Surfers 101 
Booking 17 Surfers 101 
Booking 18 Surfers 101 
Booking 19 Surfers 101 
Booking 20 Surfers 101 
Booking 21 Surfers 101 
Booking 22 Surfers 101 
Booking 23 Surfers 101 
Booking 24 Surfers 101 
Booking 25 Surfers 101 
Booking 26 Surfers 101 
Booking 27 Surfers 101 
Booking 28 Surfers 101 
Booking 29 Surfers 101 
Booking 30 Surfers 101 
Booking 31 Surfers 101 
Booking 32 Surfers 101 
Booking 33 Surfers 101 
Booking 34 Surfers 101 
Booking 35 Surfers 101 
Booking 36 Surfers 101 
Booking 37 Surfers 101 
Booking 38 Surfers 101 
Booking 39 Surfers 101 
Booking 40 Surfers 101 
Booking 41 Surfers 101 
Booking 42 Surfers 101 
Booking 43 Surfers 101 
Booking 44 Surfers 101 
Booking 45 Surfers 101 
Booking 46 Surfers 101 
Booking 47 Surfers 101 
Booking 48 Surfers 101 
Booking 49 Surfers 101 
Booking 50 Surfers 101 
Booking 51 Surfers 101 
Booking 52 Surfers 101 
Booking 53 Surfers 101 
Booking 54 Surfers 101 
Booking 55 Surfers 101 
Booking 56 Surfers 101 
Booking 57 Surfers 101 
Booking 58 Surfers 101 
Booking 59 Surfers 101 
Booking 60 Surfers 101 
Booking 61 Surfers 101 
Booking 62 Surfers 101 
Booking 63 Surfers 101 
Booking 64 Surfers 101 
Booking 65 Surfers 101 
Booking 66 Surfers 101 
Booking 67 Surfers 101 
Booking 68 Surfers 101 
Booking 69 Surfers 101 
Booking 70 Surfers 101 
Booking 71 Surfers 101 
Booking 72 Surfers 101 
Booking 73 Surfers 101 
Booking 74 Surfers 101 
Booking 75 Surfers 101 
Booking 76 Surfers 101 
Booking 77 Surfers 101 
Booking 78 Surfers 101 
Booking 79 Surfers 101 
Booking 80 Surfers 101 
Booking 81 Surfers 101 
Booking 82 Surfers 101 
Booking 83 Surfers 101 
Booking 84 Surfers 101 
Booking 85 Surfers 101 
Booking 86 Surfers 101 
Booking 87 Surfers 101 
Booking 88 Surfers 101 
Booking 89 Surfers 101 
Booking 90 Surfers 101 
Booking 91 Surfers 101 
Booking 92 Surfers 101 
Booking 93 Surfers 101 
Booking 94 Surfers 101 
Booking 95 Surfers 101 
Booking 96 Surfers 101 
Booking 97 Surfers 101 
Booking 98 Surfers 101 
Booking 99 Surfers 101 
Booking 100 Surfers 101 
Booking 101 Surfers 101 
Booking 102 Surfers 101 
Booking 103 Surfers 101 
Booking 104 Surfers 101 
Booking 105 Surfers 101 
Booking 106 Surfers 101 
Booking 107 Surfers 101 
Booking 108 Surfers 101 
Booking 109 Surfers 101 
Booking 110 Surfers 101 
Booking 111 Surfers 101 
Booking 112 Surfers 101 
Booking 113 Surfers 101 
Booking 114 Surfers 101 
Booking 115 Surfers 101 
Booking 116 Surfers 101 
Booking 117 Surfers 101 
Booking 118 Surfers 101 
Booking 119 Surfers 101 
Booking 120 Surfers 101 
Booking 121 Surfers 101 
Booking 122 Surfers 101 
Booking 123 Surfers 101 
Booking 124 Surfers 101 
Booking 125 Surfers 101 
Booking 126 Surfers 101 
Booking 127 Surfers 101 
Booking 128 Surfers 101 
Booking 129 Surfers 101 
Booking 130 Surfers 101 
Booking 131 Surfers 101 
Booking 132 Surfers 101 
Booking 133 Surfers 101 
Booking 134 Surfers 101 
Booking 135 Surfers 101 
Booking 136 Surfers 101 
Booking 137 Surfers 101 
Booking 138 Surfers 101 
Booking 139 Surfers 101 
Booking 140 Surfers 101 
Booking 141 Surfers 101 
Booking 142 Surfers 101 
Booking 143 Surfers 101 
Booking 144 Surfers 101 
Booking 145 Surfers 101 
Booking 146 Surfers 101 
Booking 147 Surfers 101 
Booking 148 Surfers 101 
Booking 149 Surfers 101 
Booking 150 Surfers 101 
Booking 151 Surfers 101 
Booking 152 Surfers 101 
Booking 153 Surfers 101 
Booking 154 Surfers 101 
Booking 155 Surfers 101 
Booking 156 Surfers 101 
Booking 157 Surfers 101 
Booking 158 Surfers 101 
Booking 159 Surfers 101 
Booking 160 Surfers 101 
Booking 161 Surfers 101 
Booking 162 Surfers 101 
Booking 163 Surfers 101 
Booking 164 Surfers 101 
Booking 165 Surfers 101 
Booking 166 Surfers 101 
Booking 167 Surfers 101 
Booking 168 Surfers 101 
Booking 169 Surfers 101 
Booking 170 Surfers 101 
Booking 171 Surfers 101 
Booking 172 Surfers 101 
Booking 173 Surfers 101 
Booking 174 Surfers 101 
Booking 175 Surfers 101 
Booking 176 Surfers 101 
Booking 177 Surfers 101 
Booking 178 Surfers 101 
Booking 179 Surfers 101 
Booking 180 Surfers 101 
Booking 181 Surfers 101 
Booking 182 Surfers 101 
Booking 183 Surfers 101 
Booking 184 Surfers 101 
Booking 185 Surfers 101 
Booking 186 Surfers 101 
Booking 187 Surfers 101 
Booking 188 Surfers 101 
Booking 189 Surfers 101 
Booking 190 Surfers 101 
Booking 191 Surfers 101 
Booking 192 Surfers 101 
Booking 193 Surfers 101 
Booking 194 Surfers 101 
Booking 195 Surfers 101 
Booking 196 Surfers 101 
Booking 197 Surfers 101 
Booking 198 Surfers 101 
Booking 199 Surfers 101 
Booking 200 Surfers 101 
Booking 201 Surfers 101 
Booking 202 Surfers 101 
Booking 203 Surfers 101 
Booking 204 Surfers 101 
Booking 205 Surfers 101 
Booking 206 Surfers 101 
Booking 207 Surfers 101 
Booking 208 Surfers 101 
Booking 209 Surfers 101 
Booking 210 Surfers 101 
Booking 211 Surfers 101 
Booking 212 Surfers 101 
Booking 213 Surfers 101 
Booking 214 Surfers 101 
Booking 215 Surfers 101 
Booking 216 Surfers 101 
Booking 217 Surfers 101 
Booking 218 Surfers 101 
Booking 219 Surfers 101 
Booking 220 Surfers 101 
Booking 221 Surfers 101 
Booking 222 Surfers 101 
Booking 223 Surfers 101 
Booking 224 Surfers 101 
Booking 225 Surfers 101 
Booking 226 Surfers 101 
Booking 227 Surfers 101 
Booking 228 Surfers 101 
Booking 229 Surfers 101 
Booking 230 Surfers 101 
Booking 231 Surfers 101 
Booking 232 Surfers 101 
Booking 233 Surfers 101 
Booking 234 Surfers 101 
Booking 235 Surfers 101 
Booking 236 Surfers 101 
Booking 237 Surfers 101 
Booking 238 Surfers 101 
Booking 239 Surfers 101 
Booking 240 Surfers 101 
Booking 241 Surfers 101 
Booking 242 Surfers 101 
Booking 243 Surfers 101 
Booking 244 Surfers 101 
Booking 245 Surfers 101 
Booking 246 Surfers 101 
Booking 247 Surfers 101 
Booking 248 Surfers 101 
Booking 249 Surfers 101 
Booking 250 Surfers 101 
Booking 251 Surfers 101 
Booking 252 Surfers 101 
Booking 253 Surfers 101 
Booking 254 Surfers 101 
Booking 255 Surfers 101 
Booking 256 Surfers 101 
Booking 257 Surfers 101 
Booking 258 Surfers 101 
Booking 259 Surfers 101 
Booking 260 Surfers 101 
Booking 261 Surfers 101 
Booking 262 Surfers 101 
Booking 263 Surfers 101 
Booking 264 Surfers 101 
Booking 265 Surfers 101 
Booking 266 Surfers 101 
Booking 267 Surfers 101 
Booking 268 Surfers 101 
Booking 269 Surfers 101 
Booking 270 Surfers 101 
Booking 271 Surfers 101 
Booking 272 Surfers 101 
Booking 273 Surfers 101 
Booking 274 Surfers 101 
Booking 275 Surfers 101 
Booking 276 Surfers 101 
Booking 277 Surfers 101 
Booking 278 Surfers 101 
Booking 279 Surfers 101 
Booking 280 Surfers 101 
Booking 281 Surfers 101 
Booking 282 Surfers 101 
Booking 283 Surfers 101 
Booking 284 Surfers 101 
Booking 285 Surfers 101 
Booking 286 Surfers 101 
Booking 287 Surfers 101 
Booking 288 Surfers 101 
Booking 289 Surfers 101 
Booking 290 Surfers 101 
Booking 291 Surfers 101 
Booking 292 Surfers 101 
Booking 293 Surfers 101 
Booking 294 Surfers 101 
Booking 295 Surfers 101 
Booking 296 Surfers 101 
Booking 297 Surfers 101 
Booking 298 Surfers 101 
Booking 299 Surfers 101 
Booking 300 Surfers 101 
Booking 301 Surfers 101 
Booking 302 Surfers 101 
Booking 303 Surfers 101 
Booking 304 Surfers 101 
Booking 305 Surfers 101 
Booking 306 Surfers 101 
Booking 307 Surfers 101 
Booking 308 Surfers 101 
Booking 309 Surfers 101 
Booking 310 Surfers 101 
Booking 311 Surfers 101 
Booking 312 Surfers 101 
Booking 313 Surfers 101 
Booking 314 Surfers 101 
Booking 315 Surfers 101 
Booking 316 Surfers 101 
Booking 317 Surfers 101 
Booking 318 Surfers 101 
Booking 319 Surfers 101 
Booking 320 Surfers 101 
Booking 321 Surfers 101 
Booking 322 Surfers 101 
Booking 323 Surfers 101 
Booking 324 Surfers 101 
Booking 325 Surfers 101 
Booking 326 Surfers 101 
Booking 327 Surfers 101 
Booking 328 Surfers 101 
Booking 329 Surfers 101 
Booking 330 Surfers 101 
Booking 331 Surfers 101 
Booking 332 Surfers 101 
Booking 333 Surfers 101 
Booking 334 Surfers 101 
Booking 335 Surfers 101 
Booking 336 Surfers 101 
Booking 337 Surfers 101 
Booking 338 Surfers 101 
Booking 339 Surfers 101 
Booking 340 Surfers 101 
Booking 341 Surfers 101 
Booking 342 Surfers 101 
Booking 343 Surfers 101 
Booking 344 Surfers 101 
Booking 345 Surfers 101 
Booking 346 Surfers 101 
Booking 347 Surfers 101 
Booking 348 Surfers 101 
Booking 349 Surfers 101 
Booking 350 Surfers 101 
Booking 351 Surfers 101 
Booking 352 Surfers 101 
Booking 353 Surfers 101 
Booking 354 Surfers 101 
Booking 355 Surfers 101 
Booking 356 Surfers 101 
Booking 357 Surfers 101 
Booking 358 Surfers 101 
Booking 359 Surfers 101 
Booking 360 Surfers 101 
Booking 361 Surfers 101 
Booking 362 Surfers 101 
Booking 363 Surfers 101 
Booking 364 Surfers 101 
Booking 365 Surfers 102 
Booking 366 Surfers 102 
Booking 367 Surfers 102 
Booking 368 Surfers 102 
Booking 369 Surfers 102 
Booking 370 Surfers 102 
Booking 371 Surfers 102 
Booking 372 Surfers 102 
Booking 373 Surfers 102 
Booking 374 Surfers 102 
Booking 375 Surfers 102 
Booking 376 Surfers 102 
Booking 377 Surfers 102 
Booking 378 Surfers 102 
Booking 379 Surfers 102 
Booking 380 Surfers 102 
Booking 381 Surfers 102 
Booking 382 Surfers 102 
Booking 383 Surfers 102 
Booking 384 Surfers 102 
Booking 385 Surfers 102 
Booking 386 Surfers 102 
Booking 387 Surfers 102 
Booking 388 Surfers 102 
Booking 389 Surfers 102 
Booking 390 Surfers 102 
Booking 391 Surfers 102 
Booking 392 Surfers 102 
Booking 393 Surfers 102 
Booking 394 Surfers 102 
Booking 395 Surfers 102 
Booking 396 Surfers 102 
Booking 397 Surfers 102 
Booking 398 Surfers 102 
Booking 399 Surfers 102 
Booking 400 Surfers 102 
Booking 401 Surfers 102 
Booking 402 Surfers 102 
Booking 403 Surfers 102 
Booking 404 Surfers 102 
Booking 405 Surfers 102 
Booking 406 Surfers 102 
Booking 407 Surfers 102 
Booking 408 Surfers 102 
Booking 409 Surfers 102 
Booking 410 Surfers 102 
Booking 411 Surfers 102 
Booking 412 Surfers 102 
Booking 413 Surfers 102 
Booking 414 Surfers 102 
Booking 415 Surfers 102 
Booking 416 Surfers 102 
Booking 417 Surfers 102 
Booking 418 Surfers 102 
Booking 419 Surfers 102 
Booking 420 Surfers 102 
Booking 421 Surfers 102 
Booking 422 Surfers 102 
Booking 423 Surfers 102 
Booking 424 Surfers 102 
Booking 425 Surfers 102 
Booking 426 Surfers 102 
Booking 427 Surfers 102 
Booking 428 Surfers 102 
Booking 429 Surfers 102 
Booking 430 Surfers 102 
Booking 431 Surfers 102 
Booking 432 Surfers 102 
Booking 433 Surfers 102 
Booking 434 Surfers 102 
Booking 435 Surfers 102 
Booking 436 Surfers 102 
Booking 437 Surfers 102 
Booking 438 Surfers 102 
Booking 439 Surfers 102 
Booking 440 Surfers 102 
Booking 441 Surfers 102 
Booking 442 Surfers 102 
Booking 443 Surfers 102 
Booking 444 Surfers 102 
Booking 445 Surfers 102 
Booking 446 Surfers 102 
Booking 447 Surfers 102 
Booking 448 Surfers 102 
Booking 449 Surfers 102 
Booking 450 Surfers 102 
Booking 451 Surfers 102 
Booking 452 Surfers 102 
Booking 453 Surfers 102 
Booking 454 Surfers 102 
Booking 455 Surfers 102 
Booking 456 Surfers 102 
Booking 457 Surfers 102 
Booking 458 Surfers 102 
Booking 459 Surfers 102 
Booking 460 Surfers 102 
Booking 461 Surfers 102 
Booking 462 Surfers 102 
Booking 463 Surfers 102 
Booking 464 Surfers 102 
Booking 465 Surfers 102 
Booking 466 Surfers 102 
Booking 467 Surfers 102 
Booking 468 Surfers 102 
Booking 469 Surfers 102 
Booking 470 Surfers 102 
Booking 471 Surfers 102 
Booking 472 Surfers 102 
Booking 473 Surfers 102 
Booking 474 Surfers 102 
Booking 475 Surfers 102 
Booking 476 Surfers 102 
Booking 477 Surfers 102 
Booking 478 Surfers 102 
Booking 479 Surfers 102 
Booking 480 Surfers 102 
Booking 481 Surfers 102 
Booking 482 Surfers 102 
Booking 483 Surfers 102 
Booking 484 Surfers 102 
Booking 485 Surfers 102 
Booking 486 Surfers 102 
Booking 487 Surfers 102 
Booking 488 Surfers 102 
Booking 489 Surfers 102 
Booking 490 Surfers 102 
Booking 491 Surfers 102 
Booking 492 Surfers 102 
Booking 493 Surfers 102 
Booking 494 Surfers 102 
Booking 495 Surfers 102 
Booking 496 Surfers 102 
Booking 497 Surfers 102 
Booking 498 Surfers 102 
Booking 499 Surfers 102 
Booking 500 Surfers 102 
Booking 501 Surfers 102 
Booking 502 Surfers 102 
Booking 503 Surfers 102 
Booking 504 Surfers 102 
Booking 505 Surfers 102 
Booking 506 Surfers 102 
Booking 507 Surfers 102 
Booking 508 Surfers 102 
Booking 509 Surfers 102 
Booking 510 Surfers 102 
Booking 511 Surfers 102 
Booking 512 Surfers 102 
Booking 513 Surfers 102 
Booking 514 Surfers 102 
Booking 515 Surfers 102 
Booking 516 Surfers 102 
Booking 517 Surfers 102 
Booking 518 Surfers 102 
Booking 519 Surfers 102 
Booking 520 Surfers 102 
Booking 521 Surfers 102 
Booking 522 Surfers 102 
Booking 523 Surfers 102 
Booking 524 Surfers 102 
Booking 525 Surfers 102 
Booking 526 Surfers 102 
Booking 527 Surfers 102 
Booking 528 Surfers 102 
Booking 529 Surfers 102 
Booking 530 Surfers 102 
Booking 531 Surfers 102 
Booking 532 Surfers 102 
Booking 533 Surfers 102 
Booking 534 Surfers 102 
Booking 535 Surfers 102 
Booking 536 Surfers 102 
Booking 537 Surfers 102 
Booking 538 Surfers 102 
Booking 539 Surfers 102 
Booking 540 Surfers 102 
Booking 541 Surfers 102 
Booking 542 Surfers 102 
Booking 543 Surfers 102 
Booking 544 Surfers 102 
Booking 545 Surfers 102 
Booking 546 Surfers 102 
Booking 547 Surfers 102 
Booking 548 Surfers 102 
Booking 549 Surfers 102 
Booking 550 Surfers 102 
Booking 551 Surfers 102 
Booking 552 Surfers 102 
Booking 553 Surfers 102 
Booking 554 Surfers 102 
Booking 555 Surfers 102 
Booking 556 Surfers 102 
Booking 557 Surfers 102 
Booking 558 Surfers 102 
Booking 559 Surfers 102 
Booking 560 Surfers 102 
Booking 561 Surfers 102 
Booking 562 Surfers 102 
Booking 563 Surfers 102 
Booking 564 Surfers 102 
Booking 565 Surfers 102 
Booking 566 Surfers 102 
Booking 567 Surfers 102 
Booking 568 Surfers 102 
Booking 569 Surfers 102 
Booking 570 Surfers 102 
Booking 571 Surfers 102 
Booking 572 Surfers 102 
Booking 573 Surfers 102 
Booking 574 Surfers 102 
Booking 575 Surfers 102 
Booking 576 Surfers 102 
Booking 577 Surfers 102 
Booking 578 Surfers 102 
Booking 579 Surfers 102 
Booking 580 Surfers 102 
Booking 581 Surfers 102 
Booking 582 Surfers 102 
Booking 583 Surfers 102 
Booking 584 Surfers 102 
Booking 585 Surfers 102 
Booking 586 Surfers 102 
Booking 587 Surfers 102 
Booking 588 Surfers 102 
Booking 589 Surfers 102 
Booking 590 Surfers 102 
Booking 591 Surfers 102 
Booking 592 Surfers 102 
Booking 593 Surfers 102 
Booking 594 Surfers 102 
Booking 595 Surfers 102 
Booking 596 Surfers 102 
Booking 597 Surfers 102 
Booking 598 Surfers 102 
Booking 599 Surfers 102 
Booking 600 Surfers 102 
Booking 601 Surfers 102 
Booking 602 Surfers 102 
Booking 603 Surfers 102 
Booking 604 Surfers 102 
Booking 605 Surfers 102 
Booking 606 Surfers 102 
Booking 607 Surfers 102 
Booking 608 Surfers 102 
Booking 609 Surfers 102 
Booking 610 Surfers 102 
Booking 611 Surfers 102 
Booking 612 Surfers 102 
Booking 613 Surfers 102 
Booking 614 Surfers 102 
Booking 615 Surfers 102 
Booking 616 Surfers 102 
Booking 617 Surfers 102 
Booking 618 Surfers 102 
Booking 619 Surfers 102 
Booking 620 Surfers 102 
Booking 621 Surfers 102 
Booking 622 Surfers 102 
Booking 623 Surfers 102 
Booking 624 Surfers 102 
Booking 625 Surfers 102 
Booking 626 Surfers 102 
Booking 627 Surfers 102 
Booking 628 Surfers 102 
Booking 629 Surfers 102 
Booking 630 Surfers 102 
Booking 631 Surfers 102 
Booking 632 Surfers 102 
Booking 633 Surfers 102 
Booking 634 Surfers 102 
Booking 635 Surfers 102 
Booking 636 Surfers 102 
Booking 637 Surfers 102 
Booking 638 Surfers 102 
Booking 639 Surfers 102 
Booking 640 Surfers 102 
Booking 641 Surfers 102 
Booking 642 Surfers 102 
Booking 643 Surfers 102 
Booking 644 Surfers 102 
Booking 645 Surfers 102 
Booking 646 Surfers 102 
Booking 647 Surfers 102 
Booking 648 Surfers 102 
Booking 649 Surfers 102 
Booking 650 Surfers 102 
Booking 651 Surfers 102 
Booking 652 Surfers 102 
Booking 653 Surfers 102 
Booking 654 Surfers 102 
Booking 655 Surfers 102 
Booking 656 Surfers 102 
Booking 657 Surfers 102 
Booking 658 Surfers 102 
Booking 659 Surfers 102 
Booking 660 Surfers 102 
Booking 661 Surfers 102 
Booking 662 Surfers 102 
Booking 663 Surfers 102 
Booking 664 Surfers 102 
Booking 665 Surfers 102 
Booking 666 Surfers 102 
Booking 667 Surfers 102 
Booking 668 Surfers 102 
Booking 669 Surfers 102 
Booking 670 Surfers 102 
Booking 671 Surfers 102 
Booking 672 Surfers 102 
Booking 673 Surfers 102 
Booking 674 Surfers 102 
Booking 675 Surfers 102 
Booking 676 Surfers 102 
Booking 677 Surfers 102 
Booking 678 Surfers 102 
Booking 679 Surfers 102 
Booking 680 Surfers 102 
Booking 681 Surfers 102 
Booking 682 Surfers 102 
Booking 683 Surfers 102 
Booking 684 Surfers 102 
Booking 685 Surfers 102 
Booking 686 Surfers 102 
Booking 687 Surfers 102 
Booking 688 Surfers 102 
Booking 689 Surfers 102 
Booking 690 Surfers 102 
Booking 691 Surfers 102 
Booking 692 Surfers 102 
Booking 693 Surfers 102 
Booking 694 Surfers 102 
Booking 695 Surfers 102 
Booking 696 Surfers 102 
Booking 697 Surfers 102 
Booking 698 Surfers 102 
Booking 699 Surfers 102 
Booking 700 Surfers 102 
Booking 701 Surfers 102 
Booking 702 Surfers 102 
Booking 703 Surfers 102 
Booking 704 Surfers 102 
Booking 705 Surfers 102 
Booking 706 Surfers 102 
Booking 707 Surfers 102 
Booking 708 Surfers 102 
Booking 709 Surfers 102 
Booking 710 Surfers 102 
Booking 711 Surfers 102 
Booking 712 Surfers 102 
Booking 713 Surfers 102 
Booking 714 Surfers 102 
Booking 715 Surfers 102 
Booking 716 Surfers 102 
Booking 717 Surfers 102 
Booking 718 Surfers 102 
Booking 719 Surfers 102 
Booking 720 Surfers 102 
Booking 721 Surfers 102 
Booking 722 Surfers 102 
Booking 723 Surfers 102 
Booking 724 Surfers 102 
Booking 725 Surfers 102 
Booking 726 Surfers 102 
Booking 727 Surfers 102 
Booking 728 Surfers 102 
Booking 729 Surfers 102 
Booking 730 Surfers 103 
Booking 731 Surfers 103 
Booking 732 Surfers 103 
Booking 733 Surfers 103 
Booking 734 Surfers 103 
Booking 735 Surfers 103 
Booking 736 Surfers 103 
Booking 737 Surfers 103 
Booking 738 Surfers 103 
Booking 739 Surfers 103 
Booking 740 Surfers 103 
Booking 741 Surfers 103 
Booking 742 Surfers 103 
Booking 743 Surfers 103 
Booking 744 Surfers 103 
Booking 745 Surfers 103 
Booking 746 Surfers 103 
Booking 747 Surfers 103 
Booking 748 Surfers 103 
Booking 749 Surfers 103 
Booking 750 Surfers 103 
Booking 751 Surfers 103 
Booking 752 Surfers 103 
Booking 753 Surfers 103 
Booking 754 Surfers 103 
Booking 755 Surfers 103 
Booking 756 Surfers 103 
Booking 757 Surfers 103 
Booking 758 Surfers 103 
Booking 759 Surfers 103 
Booking 760 Surfers 103 
Booking 761 Surfers 103 
Booking 762 Surfers 103 
Booking 763 Surfers 103 
Booking 764 Surfers 103 
Booking 765 Surfers 103 
Booking 766 Surfers 103 
Booking 767 Surfers 103 
Booking 768 Surfers 103 
Booking 769 Surfers 103 
Booking 770 Surfers 103 
Booking 771 Surfers 103 
Booking 772 Surfers 103 
Booking 773 Surfers 103 
Booking 774 Surfers 103 
Booking 775 Surfers 103 
Booking 776 Surfers 103 
Booking 777 Surfers 103 
Booking 778 Surfers 103 
Booking 779 Surfers 103 
Booking 780 Surfers 103 
Booking 781 Surfers 103 
Booking 782 Surfers 103 
Booking 783 Surfers 103 
Booking 784 Surfers 103 
Booking 785 Surfers 103 
Booking 786 Surfers 103 
Booking 787 Surfers 103 
Booking 788 Surfers 103 
Booking 789 Surfers 103 
Booking 790 Surfers 103 
Booking 791 Surfers 103 
Booking 792 Surfers 103 
Booking 793 Surfers 103 
Booking 794 Surfers 103 
Booking 795 Surfers 103 
Booking 796 Surfers 103 
Booking 797 Surfers 103 
Booking 798 Surfers 103 
Booking 799 Surfers 103 
Booking 800 Surfers 103 
Booking 801 Surfers 103 
Booking 802 Surfers 103 
Booking 803 Surfers 103 
Booking 804 Surfers 103 
Booking 805 Surfers 103 
Booking 806 Surfers 103 
Booking 807 Surfers 103 
Booking 808 Surfers 103 
Booking 809 Surfers 103 
Booking 810 Surfers 103 
Booking 811 Surfers 103 
Booking 812 Surfers 103 
Booking 813 Surfers 103 
Booking 814 Surfers 103 
Booking 815 Surfers 103 
Booking 816 Surfers 103 
Booking 817 Surfers 103 
Booking 818 Surfers 103 
Booking 819 Surfers 103 
Booking 820 Surfers 103 
Booking 821 Surfers 103 
Booking 822 Surfers 103 
Booking 823 Surfers 103 
Booking 824 Surfers 103 
Booking 825 Surfers 103 
Booking 826 Surfers 103 
Booking 827 Surfers 103 
Booking 828 Surfers 103 
Booking 829 Surfers 103 
Booking 830 Surfers 103 
Booking 831 Surfers 103 
Booking 832 Surfers 103 
Booking 833 Surfers 103 
Booking 834 Surfers 103 
Booking 835 Surfers 103 
Booking 836 Surfers 103 
Booking 837 Surfers 103 
Booking 838 Surfers 103 
Booking 839 Surfers 103 
Booking 840 Surfers 103 
Booking 841 Surfers 103 
Booking 842 Surfers 103 
Booking 843 Surfers 103 
Booking 844 Surfers 103 
Booking 845 Surfers 103 
Booking 846 Surfers 103 
Booking 847 Surfers 103 
Booking 848 Surfers 103 
Booking 849 Surfers 103 
Booking 850 Surfers 103 
Booking 851 Surfers 103 
Booking 852 Surfers 103 
Booking 853 Surfers 103 
Booking 854 Surfers 103 
Booking 855 Surfers 103 
Booking 856 Surfers 103 
Booking 857 Surfers 103 
Booking 858 Surfers 103 
Booking 859 Surfers 103 
Booking 860 Surfers 103 
Booking 861 Surfers 103 
Booking 862 Surfers 103 
Booking 863 Surfers 103 
Booking 864 Surfers 103 
Booking 865 Surfers 103 
Booking 866 Surfers 103 
Booking 867 Surfers 103 
Booking 868 Surfers 103 
Booking 869 Surfers 103 
Booking 870 Surfers 103 
Booking 871 Surfers 103 
Booking 872 Surfers 103 
Booking 873 Surfers 103 
Booking 874 Surfers 103 
Booking 875 Surfers 103 
Booking 876 Surfers 103 
Booking 877 Surfers 103 
Booking 878 Surfers 103 
Booking 879 Surfers 103 
Booking 880 Surfers 103 
Booking 881 Surfers 103 
Booking 882 Surfers 103 
Booking 883 Surfers 103 
Booking 884 Surfers 103 
Booking 885 Surfers 103 
Booking 886 Surfers 103 
Booking 887 Surfers 103 
Booking 888 Surfers 103 
Booking 889 Surfers 103 
Booking 890 Surfers 103 
Booking 891 Surfers 103 
Booking 892 Surfers 103 
Booking 893 Surfers 103 
Booking 894 Surfers 103 
Booking 895 Surfers 103 
Booking 896 Surfers 103 
Booking 897 Surfers 103 
Booking 898 Surfers 103 
Booking 899 Surfers 103 
Booking 900 Surfers 103 
Booking 901 Surfers 103 
Booking 902 Surfers 103 
Booking 903 Surfers 103 
Booking 904 Surfers 103 
Booking 905 Surfers 103 
Booking 906 Surfers 103 
Booking 907 Surfers 103 
Booking 908 Surfers 103 
Booking 909 Surfers 103 
Booking 910 Surfers 103 
Booking 911 Surfers 103 
Booking 912 Surfers 103 
Booking 913 Surfers 103 
Booking 914 Surfers 103 
Booking 915 Surfers 103 
Booking 916 Surfers 103 
Booking 917 Surfers 103 
Booking 918 Surfers 103 
Booking 919 Surfers 103 
Booking 920 Surfers 103 
Booking 921 Surfers 103 
Booking 922 Surfers 103 
Booking 923 Surfers 103 
Booking 924 Surfers 103 
Booking 925 Surfers 103 
Booking 926 Surfers 103 
Booking 927 Surfers 103 
Booking 928 Surfers 103 
Booking 929 Surfers 103 
Booking 930 Surfers 103 
Booking 931 Surfers 103 
Booking 932 Surfers 103 
Booking 933 Surfers 103 
Booking 934 Surfers 103 
Booking 935 Surfers 103 
Booking 936 Surfers 103 
Booking 937 Surfers 103 
Booking 938 Surfers 103 
Booking 939 Surfers 103 
Booking 940 Surfers 103 
Booking 941 Surfers 103 
Booking 942 Surfers 103 
Booking 943 Surfers 103 
Booking 944 Surfers 103 
Booking 945 Surfers 103 
Booking 946 Surfers 103 
Booking 947 Surfers 103 
Booking 948 Surfers 103 
Booking 949 Surfers 103 
Booking 950 Surfers 103 
Booking 951 Surfers 103 
Booking 952 Surfers 103 
Booking 953 Surfers 103 
Booking 954 Surfers 103 
Booking 955 Surfers 103 
Booking 956 Surfers 103 
Booking 957 Surfers 103 
Booking 958 Surfers 103 
Booking 959 Surfers 103 
Booking 960 Surfers 103 
Booking 961 Surfers 103 
Booking 962 Surfers 103 
Booking 963 Surfers 103 
Booking 964 Surfers 103 
Booking 965 Surfers 103 
Booking 966 Surfers 103 
Booking 967 Surfers 103 
Booking 968 Surfers 103 
Booking 969 Surfers 103 
Booking 970 Surfers 103 
Booking 971 Surfers 103 
Booking 972 Surfers 103 
Booking 973 Surfers 103 
Booking 974 Surfers 103 
Booking 975 Surfers 103 
Booking 976 Surfers 103 
Booking 977 Surfers 103 
Booking 978 Surfers 103 
Booking 979 Surfers 103 
Booking 980 Surfers 103 
Booking 981 Surfers 103 
Booking 982 Surfers 103 
Booking 983 Surfers 103 
Booking 984 Surfers 103 
Booking 985 Surfers 103 
Booking 986 Surfers 103 
Booking 987 Surfers 103 
Booking 988 Surfers 103 
Booking 989 Surfers 103 
Booking 990 Surfers 103 
Booking 991 Surfers 103 
Booking 992 Surfers 103 
Booking 993 Surfers 103 
Booking 994 Surfers 103 
Booking 995 Surfers 103 
Booking 996 Surfers 103 
Booking 997 Surfers 103 
Booking 998 Surfers 103 
Booking 999 Surfers 103 
Booking 1000 Surfers 103 
Booking 1001 Surfers 103 
Booking 1002 Surfers 103 
Booking 1003 Surfers 103 
Booking 1004 Surfers 103 
Booking 1005 Surfers 103 
Booking 1006 Surfers 103 
Booking 1007 Surfers 103 
Booking 1008 Surfers 103 
Booking 1009 Surfers 103 
Booking 1010 Surfers 103 
Booking 1011 Surfers 103 
Booking 1012 Surfers 103 
Booking 1013 Surfers 103 
Booking 1014 Surfers 103 
Booking 1015 Surfers 103 
Booking 1016 Surfers 103 
Booking 1017 Surfers 103 
Booking 1018 Surfers 103 
Booking 1019 Surfers 103 
Booking 1020 Surfers 103 
Booking 1021 Surfers 103 
Booking 1022 Surfers 103 
Booking 1023 Surfers 103 
Booking 1024 Surfers 103 
Booking 1025 Surfers 103 
Booking 1026 Surfers 103 
Booking 1027 Surfers 103 
Booking 1028 Surfers 103 
Booking 1029 Surfers 103 
Booking 1030 Surfers 103 
Booking 1031 Surfers 103 
Booking 1032 Surfers 103 
Booking 1033 Surfers 103 
Booking 1034 Surfers 103 
Booking 1035 Surfers 103 
Booking 1036 Surfers 103 
Booking 1037 Surfers 103 
Booking 1038 Surfers 103 
Booking 1039 Surfers 103 
Booking 1040 Surfers 103 
Booking 1041 Surfers 103 
Booking 1042 Surfers 103 
Booking 1043 Surfers 103 
Booking 1044 Surfers 103 
Booking 1045 Surfers 103 
Booking 1046 Surfers 103 
Booking 1047 Surfers 103 
Booking 1048 Surfers 103 
Booking 1049 Surfers 103 
Booking 1050 Surfers 103 
Booking 1051 Surfers 103 
Booking 1052 Surfers 103 
Booking 1053 Surfers 103 
Booking 1054 Surfers 103 
Booking 1055 Surfers 103 
Booking 1056 Surfers 103 
Booking 1057 Surfers 103 
Booking 1058 Surfers 103 
Booking 1059 Surfers 103 
Booking 1060 Surfers 103 
Booking 1061 Surfers 103 
Booking 1062 Surfers 103 
Booking 1063 Surfers 103 
Booking 1064 Surfers 103 
Booking 1065 Surfers 103 
Booking 1066 Surfers 103 
Booking 1067 Surfers 103 
Booking 1068 Surfers 103 
Booking 1069 Surfers 103 
Booking 1070 Surfers 103 
Booking 1071 Surfers 103 
Booking 1072 Surfers 103 
Booking 1073 Surfers 103 
Booking 1074 Surfers 103 
Booking 1075 Surfers 103 
Booking 1076 Surfers 103 
Booking 1077 Surfers 103 
Booking 1078 Surfers 103 
Booking 1079 Surfers 103 
Booking 1080 Surfers 103 
Booking 1081 Surfers 103 
Booking 1082 Surfers 103 
Booking 1083 Surfers 103 
Booking 1084 Surfers 103 
Booking 1085 Surfers 103 
Booking 1086 Surfers 103 
Booking 1087 Surfers 103 
Booking 1088 Surfers 103 
Booking 1089 Surfers 103 
Booking 1090 Surfers 103 
Booking 1091 Surfers 103 
Booking 1092 Surfers 103 
Booking 1093 Surfers 103 
Booking 1094 Surfers 103 
Cancel 0
Cancel 1
Cancel 2
Cancel 3
Cancel 4
Cancel 5
Cancel 6
Cancel 7
Cancel 8
Cancel 9
Cancel 10
Cancel 11
Cancel 12
Cancel 13
Cancel 14
Cancel 15
Cancel 16
Cancel 17
Cancel 18
Cancel 19
Cancel 20
Cancel 21
Cancel 22
Cancel 23
Cancel 24
Cancel 25
Cancel 26
Cancel 27
Cancel 28
Cancel 29
Cancel 30
Cancel 31
Cancel 32
Cancel 33
Cancel 34
Cancel 35
Cancel 36
Cancel 37
Cancel 38
Cancel 39
Cancel 40
Cancel 41
Cancel 42
Cancel 43
Cancel 44
Cancel 45
Cancel 46
Cancel 47
Cancel 48
Cancel 49
Cancel 50
Cancel 51
Cancel 52
Cancel 53
Cancel 54
Cancel 55
Cancel 56
Cancel 57
Cancel 58
Cancel 59
Cancel 60
Cancel 61
Cancel 62
Cancel 63
Cancel 64
Cancel 65
Cancel 66
Cancel 67
Cancel 68
Cancel 69
Cancel 70
Cancel 71
Cancel 72
Cancel 73
Cancel 74
Cancel 75
Cancel 76
Cancel 77
Cancel 78
Cancel 79
Cancel 80
Cancel 81
Cancel 82
Cancel 83
Cancel 84
Cancel 85
Cancel 86
Cancel 87
Cancel 88
Cancel 89
Cancel 90
Cancel 91
Cancel 92
Cancel 93
Cancel 94
Cancel 95
Cancel 96
Cancel 97
Cancel 98
Cancel 99
Cancel 100
Cancel 101
Cancel 102
Cancel 103
Cancel 104
Cancel 105
Cancel 106
Cancel 107
Cancel 108
Cancel 109
Cancel 110
Cancel 111
Cancel 112
Cancel 113
Cancel 114
Cancel 115
Cancel 116
Cancel 117
Cancel 118
Cancel 119
Cancel 120
Cancel 121
Cancel 122
Cancel 123
Cancel 124
Cancel 125
Cancel 126
Cancel 127
Cancel 128
Cancel 129
Cancel 130
Cancel 131
Cancel 132
Cancel 133
Cancel 134
Cancel 135
Cancel 136
Cancel 137
Cancel 138
Cancel 139
Cancel 140
Cancel 141
Cancel 142
Cancel 143
Cancel 144
Cancel 145
Cancel 146
Cancel 147
Cancel 148
Cancel 149
Cancel 150
Cancel 151
Cancel 152
Cancel 153
Cancel 154
Cancel 155
Cancel 156
Cancel 157
Cancel 158
Cancel 159
Cancel 160
Cancel 161
Cancel 162
Cancel 163
Cancel 164
Cancel 165
Cancel 166
Cancel 167
Cancel 168
Cancel 169
Cancel 170
Cancel 171
Cancel 172
Cancel 173
Cancel 174
Cancel 175
Cancel 176
Cancel 177
Cancel 178
Cancel 179
Cancel 180
Cancel 181
Cancel 182
Cancel 183
Cancel 184
Cancel 185
Cancel 186
Cancel 187
Cancel 188
Cancel 189
Cancel 190
Cancel 191
Cancel 192
Cancel 193
Cancel 194
Cancel 195
Cancel 196
Cancel 197
Cancel 198
Cancel 199
Cancel 200
Cancel 201
Cancel 202
Cancel 203
Cancel 204
Cancel 205
Cancel 206
Cancel 207
Cancel 208
Cancel 209
Cancel 210
Cancel 211
Cancel 212
Cancel 213
Cancel 214
Cancel 215
Cancel 216
Cancel 217
Cancel 218
Cancel 219
Cancel 220
Cancel 221
Cancel 222
Cancel 223
Cancel 224
Cancel 225
Cancel 226
Cancel 227
Cancel 228
Cancel 229
Cancel 230
Cancel 231
Cancel 232
Cancel 233
Cancel 234
Cancel 235
Cancel 236
Cancel 237
Cancel 238
Cancel 239
Cancel 240
Cancel 241
Cancel 242
Cancel 243
Cancel 244
Cancel 245
Cancel 246
Cancel 247
Cancel 248
Cancel 249
Cancel 250
Cancel 251
Cancel 252
Cancel 253
Cancel 254
Cancel 255
Cancel 256
Cancel 257
Cancel 258
Cancel 259
Cancel 260
Cancel 261
Cancel 262
Cancel 263
Cancel 264
Cancel 265
Cancel 266
Cancel 267
Cancel 268
Cancel 269
Cancel 270
Cancel 271
Cancel 272
Cancel 273
Cancel 274
Cancel 275
Cancel 276
Cancel 277
Cancel 278
Cancel 279
Cancel 280
Cancel 281
Cancel 282
Cancel 283
Cancel 284
Cancel 285
Cancel 286
Cancel 287
Cancel 288
Cancel 289
Cancel 290
Cancel 291
Cancel 292
Cancel 293
Cancel 294
Cancel 295
Cancel 296
Cancel 297
Cancel 298
Cancel 299
Cancel 300
Cancel 301
Cancel 302
Cancel 303
Cancel 304
Cancel 305
Cancel 306
Cancel 307
Cancel 308
Cancel 309
Cancel 310
Cancel 311
Cancel 312
Cancel 313
Cancel 314
Cancel 315
Cancel 316
Cancel 317
Cancel 318
Cancel 319
Cancel 320
Cancel 321
Cancel 322
Cancel 323
Cancel 324
Cancel 325
Cancel 326
Cancel 327
Cancel 328
Cancel 329
Cancel 330
Cancel 331
Cancel 332
Cancel 333
Cancel 334
Cancel 335
Cancel 336
Cancel 337
Cancel 338
Cancel 339
Cancel 340
Cancel 341
Cancel 342
Cancel 343
Cancel 344
Cancel 345
Cancel 346
Cancel 347
Cancel 348
Cancel 349
Cancel 350
Cancel 351
Cancel 352
Cancel 353
Cancel 354
Cancel 355
Cancel 356
Cancel 357
Cancel 358
Cancel 359
Cancel 360
Cancel 361
Cancel 362
Cancel 363
Cancel 364
Cancel 365
Cancel 366
Cancel 367
Cancel 368
Cancel 369
Cancel 370
Cancel 371
Cancel 372
Cancel 373
Cancel 374
Cancel 375
Cancel 376
Cancel 377
Cancel 378
Cancel 379
Cancel 380
Cancel 381
Cancel 382
Cancel 383
Cancel 384
Cancel 385
Cancel 386
Cancel 387
Cancel 388
Cancel 389
Cancel 390
Cancel 391
Cancel 392
Cancel 393
Cancel 394
Cancel 395
Cancel 396
Cancel 397
Cancel 398
Cancel 399
Cancel 400
Cancel 401
Cancel 402
Cancel 403
Cancel 404
Cancel 405
Cancel 406
Cancel 407
Cancel 408
Cancel 409
Cancel 410
Cancel 411
Cancel 412
Cancel 413
Cancel 414
Cancel 415
Cancel 416
Cancel 417
Cancel 418
Cancel 419
Cancel 420
Cancel 421
Cancel 422
Cancel 423
Cancel 424
Cancel 425
Cancel 426
Cancel 427
Cancel 428
Cancel 429
Cancel 430
Cancel 431
Cancel 432
Cancel 433
Cancel 434
Cancel 435
Cancel 436
Cancel 437
Cancel 438
Cancel 439
Cancel 440
Cancel 441
Cancel 442
Cancel 443
Cancel 444
Cancel 445
Cancel 446
Cancel 447
Cancel 448
Cancel 449
Cancel 450
Cancel 451
Cancel 452
Cancel 453
Cancel 454
Cancel 455
Cancel 456
Cancel 457
Cancel 458
Cancel 459
Cancel 460
Cancel 461
Cancel 462
Cancel 463
Cancel 464
Cancel 465
Cancel 466
Cancel 467
Cancel 468
Cancel 469
Cancel 470
Cancel 471
Cancel 472
Cancel 473
Cancel 474
Cancel 475
Cancel 476
Cancel 477
Cancel 478
Cancel 479
Cancel 480
Cancel 481
Cancel 482
Cancel 483
Cancel 484
Cancel 485
Cancel 486
Cancel 487
Cancel 488
Cancel 489
Cancel 490
Cancel 491
Cancel 492
Cancel 493
Cancel 494
Cancel 495
Cancel 496
Cancel 497
Cancel 498
Cancel 499
Cancel 500
Cancel 501
Cancel 502
Cancel 503
Cancel 504
Cancel 505
Cancel 506
Cancel 507
Cancel 508
Cancel 509
Cancel 510
Cancel 511
Cancel 512
Cancel 513
Cancel 514
Cancel 515
Cancel 516
Cancel 517
Cancel 518
Cancel 519
Cancel 520
Cancel 521
Cancel 522
Cancel 523
Cancel 524
Cancel 525
Cancel 526
Cancel 527
Cancel 528
Cancel 529
Cancel 530
Cancel 531
Cancel 532
Cancel 533
Cancel 534
Cancel 535
Cancel 536
Cancel 537
Cancel 538
Cancel 539
Cancel 540
Cancel 541
Cancel 542
Cancel 543
Cancel 544
Cancel 545
Cancel 546
Cancel 547
Cancel 548
Cancel 549
Cancel 550
Cancel 551
Cancel 552
Cancel 553
Cancel 554
Cancel 555
Cancel 556
Cancel 557
Cancel 558
Cancel 559
Cancel 560
Cancel 561
Cancel 562
Cancel 563
Cancel 564
Cancel 565
Cancel 566
Cancel 567
Cancel 568
Cancel 569
Cancel 570
Cancel 571
Cancel 572
Cancel 573
Cancel 574
Cancel 575
Cancel 576
Cancel 577
Cancel 578
Cancel 579
Cancel 580
Cancel 581
Cancel 582
Cancel 583
Cancel 584
Cancel 585
Cancel 586
Cancel 587
Cancel 588
Cancel 589
Cancel 590
Cancel 591
Cancel 592
Cancel 593
Cancel 594
Cancel 595
Cancel 596
Cancel 597
Cancel 598
Cancel 599
Cancel 600
Cancel 601
Cancel 602
Cancel 603
Cancel 604
Cancel 605
Cancel 606
Cancel 607
Cancel 608
Cancel 609
Cancel 610
Cancel 611
Cancel 612
Cancel 613
Cancel 614
Cancel 615
Cancel 616
Cancel 617
Cancel 618
Cancel 619
Cancel 620
Cancel 621
Cancel 622
Cancel 623
Cancel 624
Cancel 625
Cancel 626
Cancel 627
Cancel 628
Cancel 629
Cancel 630
Cancel 631
Cancel 632
Cancel 633
Cancel 634
Cancel 635
Cancel 636
Cancel 637
Cancel 638
Cancel 639
Cancel 640
Cancel 641
Cancel 642
Cancel 643
Cancel 644
Cancel 645
Cancel 646
Cancel 647
Cancel 648
Cancel 649
Cancel 650
Cancel 651
Cancel 652
Cancel 653
Cancel 654
Cancel 655
Cancel 656
Cancel 657
Cancel 658
Cancel 659
Cancel 660
Cancel 661
Cancel 662
Cancel 663
Cancel 664
Cancel 665
Cancel 666
Cancel 667
Cancel 668
Cancel 669
Cancel 670
Cancel 671
Cancel 672
Cancel 673
Cancel 674
Cancel 675
Cancel 676
Cancel 677
Cancel 678
Cancel 679
Cancel 680
Cancel 681
Cancel 682
Cancel 683
Cancel 684
Cancel 685
Cancel 686
Cancel 687
Cancel 688
Cancel 689
Cancel 690
Cancel 691
Cancel 692
Cancel 693
Cancel 694
Cancel 695
Cancel 696
Cancel 697
Cancel 698
Cancel 699
Cancel 700
Cancel 701
Cancel 702
Cancel 703
Cancel 704
Cancel 705
Cancel 706
Cancel 707
Cancel 708
Cancel 709
Cancel 710
Cancel 711
Cancel 712
Cancel 713
Cancel 714
Cancel 715
Cancel 716
Cancel 717
Cancel 718
Cancel 719
Cancel 720
Cancel 721
Cancel 722
Cancel 723
Cancel 724
Cancel 725
Cancel 726
Cancel 727
Cancel 728
Cancel 729
Cancel 730
Cancel 731
Cancel 732
Cancel 733
Cancel 734
Cancel 735
Cancel 736
Cancel 737
Cancel 738
Cancel 739
Cancel 740
Cancel 741
Cancel 742
Cancel 743
Cancel 744
Cancel 745
Cancel 746
Cancel 747
Cancel 748
Cancel 749
Cancel 750
Cancel 751
Cancel 752
Cancel 753
Cancel 754
Cancel 755
Cancel 756
Cancel 757
Cancel 758
Cancel 759
Cancel 760
Cancel 761
Cancel 762
Cancel 763
Cancel 764
Cancel 765
Cancel 766
Cancel 767
Cancel 768
Cancel 769
Cancel 770
Cancel 771
Cancel 772
Cancel 773
Cancel 774
Cancel 775
Cancel 776
Cancel 777
Cancel 778
Cancel 779
Cancel 780
Cancel 781
Cancel 782
Cancel 783
Cancel 784
Cancel 785
Cancel 786
Cancel 787
Cancel 788
Cancel 789
Cancel 790
Cancel 791
Cancel 792
Cancel 793
Cancel 794
Cancel 795
Cancel 796
Cancel 797
Cancel 798
Cancel 799
Cancel 800
Cancel 801
Cancel 802
Cancel 803
Cancel 804
Cancel 805
Cancel 806
Cancel 807
Cancel 808
Cancel 809
Cancel 810
Cancel 811
Cancel 812
Cancel 813
Cancel 814
Cancel 815
Cancel 816
Cancel 817
Cancel 818
Cancel 819
Cancel 820
Cancel 821
Cancel 822
Cancel 823
Cancel 824
Cancel 825
Cancel 826
Cancel 827
Cancel 828
Cancel 829
Cancel 830
Cancel 831
Cancel 832
Cancel 833
Cancel 834
Cancel 835
Cancel 836
Cancel 837
Cancel 838
Cancel 839
Cancel 840
Cancel 841
Cancel 842
Cancel 843
Cancel 844
Cancel 845
Cancel 846
Cancel 847
Cancel 848
Cancel 849
Cancel 850
Cancel 851
Cancel 852
Cancel 853
Cancel 854
Cancel 855
Cancel 856
Cancel 857
Cancel 858
Cancel 859
Cancel 860
Cancel 861
Cancel 862
Cancel 863
Cancel 864
Cancel 865
Cancel 866
Cancel 867
Cancel 868
Cancel 869
Cancel 870
Cancel 871
Cancel 872
Cancel 873
Cancel 874
Cancel 875
Cancel 876
Cancel 877
Cancel 878
Cancel 879
Cancel 880
Cancel 881
Cancel 882
Cancel 883
Cancel 884
Cancel 885
Cancel 886
Cancel 887
Cancel 888
Cancel 889
Cancel 890
Cancel 891
Cancel 892
Cancel 893
Cancel 894
Cancel 895
Cancel 896
Cancel 897
Cancel 898
Cancel 899
Cancel 900
Cancel 901
Cancel 902
Cancel 903
Cancel 904
Cancel 905
Cancel 906
Cancel 907
Cancel 908
Cancel 909
Cancel 910
Cancel 911
Cancel 912
Cancel 913
Cancel 914
Cancel 915
Cancel 916
Cancel 917
Cancel 918
Cancel 919
Cancel 920
Cancel 921
Cancel 922
Cancel 923
Cancel 924
Cancel 925
Cancel 926
Cancel 927
Cancel 928
Cancel 929
Cancel 930
Cancel 931
Cancel 932
Cancel 933
Cancel 934
Cancel 935
Cancel 936
Cancel 937
Cancel 938
Cancel 939
Cancel 940
Cancel 941
Cancel 942
Cancel 943
Cancel 944
Cancel 945
Cancel 946
Cancel 947
Cancel 948
Cancel 949
Cancel 950
Cancel 951
Cancel 952
Cancel 953
Cancel 954
Cancel 955
Cancel 956
Cancel 957
Cancel 958
Cancel 959
Cancel 960
Cancel 961
Cancel 962
Cancel 963
Cancel 964
Cancel 965
Cancel 966
Cancel 967
Cancel 968
Cancel 969
Cancel 970
Cancel 971
Cancel 972
Cancel 973
Cancel 974
Cancel 975
Cancel 976
Cancel 977
Cancel 978
Cancel 979
Cancel 980
Cancel 981
Cancel 982
Cancel 983
Cancel 984
Cancel 985
Cancel 986
Cancel 987
Cancel 988
Cancel 989
Cancel 990
Cancel 991
Cancel 992
Cancel 993
Cancel 994
Cancel 995
Cancel 996
Cancel 997
Cancel 998
Cancel 999
Cancel 1000
Cancel 1001
Cancel 1002
Cancel 1003
Cancel 1004
Cancel 1005
Cancel 1006
Cancel 1007
Cancel 1008
Cancel 1009
Cancel 1010
Cancel 1011
Cancel 1012
Cancel 1013
Cancel 1014
Cancel 1015
Cancel 1016
Cancel 1017
Cancel 1018
Cancel 1019
Cancel 1020
Cancel 1021
Cancel 1022
Cancel 1023
Cancel 1024
Cancel 1025
Cancel 1026
Cancel 1027
Cancel 1028
Cancel 1029
Cancel 1030
Cancel 1031
Cancel 1032
Cancel 1033
Cancel 1034
Cancel 1035
Cancel 1036
Cancel 1037
Cancel 1038
Cancel 1039
Cancel 1040
Cancel 1041
Cancel 1042
Cancel 1043
Cancel 1044
Cancel 1045
Cancel 1046
Cancel 1047
Cancel 1048
Cancel 1049
Cancel 1050
Cancel 1051
Cancel 1052
Cancel 1053
Cancel 1054
Cancel 1055
Cancel 1056
Cancel 1057
Cancel 1058
Cancel 1059
Cancel 1060
Cancel 1061
Cancel 1062
Cancel 1063
Cancel 1064
Cancel 1065
Cancel 1066
Cancel 1067
Cancel 1068
Cancel 1069
Cancel 1070
Cancel 1071
Cancel 1072
Cancel 1073
Cancel 1074
Cancel 1075
Cancel 1076
Cancel 1077
Cancel 1078
Cancel 1079
Cancel 1080
Cancel 1081
Cancel 1082
Cancel 1083
Cancel 1084
Cancel 1085
Cancel 1086
Cancel 1087
Cancel 1088
Cancel 1089
Cancel 1090
Cancel 1091
Cancel 1092
Cancel 1093
Cancel 1094
Surfers 101 
Surfers 102 
Surfers 103 
