Hotel Surfers 101 1
Hotel Surfers 102 2
Hotel Surfers 103 3
Booking 0 Jan 1 1 single 1
Booking 1 Jan 2 1 single 1
Booking 2 Jan 3 1 single 1
Booking 3 Jan 4 1 single 1
Booking 4 Jan 5 1 single 1
Booking 5 Jan 6 1 single 1
Booking 6 Jan 7 1 single 1
Booking 7 Jan 8 1 single 1
Booking 8 Jan 9 1 single 1
Booking 9 Jan 10 1 single 1
Booking 10 Jan 11 1 single 1
Booking 11 Jan 12 1 single 1
Booking 12 Jan 13 1 single 1
Booking 13 Jan 14 1 single 1
Booking 14 Jan 15 1 single 1
Booking 15 Jan 16 1 single 1
Booking 16 Jan 17 1 single 1
Booking 17 Jan 18 1 single 1
Booking 18 Jan 19 1 single 1
Booking 19 Jan 20 1 single 1
Booking 20 Jan 21 1 single 1
Booking 21 Jan 22 1 single 1
Booking 22 Jan 23 1 single 1
Booking 23 Jan 24 1 single 1
Booking 24 Jan 25 1 single 1
Booking 25 Jan 26 1 single 1
Booking 26 Jan 27 1 single 1
Booking 27 Jan 28 1 single 1
Booking 28 Jan 29 1 single 1
Booking 29 Jan 30 1 single 1
Booking 30 Jan 31 1 single 1
Booking 31 Feb 1 1 single 1
Booking 32 Feb 2 1 single 1
Booking 33 Feb 3 1 single 1
Booking 34 Feb 4 1 single 1
Booking 35 Feb 5 1 single 1
Booking 36 Feb 6 1 single 1
Booking 37 Feb 7 1 single 1
Booking 38 Feb 8 1 single 1
Booking 39 Feb 9 1 single 1
Booking 40 Feb 10 1 single 1
Booking 41 Feb 11 1 single 1
Booking 42 Feb 12 1 single 1
Booking 43 Feb 13 1 single 1
Booking 44 Feb 14 1 single 1
Booking 45 Feb 15 1 single 1
Booking 46 Feb 16 1 single 1
Booking 47 Feb 17 1 single 1
Booking 48 Feb 18 1 single 1
Booking 49 Feb 19 1 single 1
Booking 50 Feb 20 1 single 1
Booking 51 Feb 21 1 single 1
Booking 52 Feb 22 1 single 1
Booking 53 Feb 23 1 single 1
Booking 54 Feb 24 1 single 1
Booking 55 Feb 25 1 single 1
Booking 56 Feb 26 1 single 1
Booking 57 Feb 27 1 single 1
Booking 58 Feb 28 1 single 1
Booking 59 Mar 1 1 single 1
Booking 60 Mar 2 1 single 1
Booking 61 Mar 3 1 single 1
Booking 62 Mar 4 1 single 1
Booking 63 Mar 5 1 single 1
Booking 64 Mar 6 1 single 1
Booking 65 Mar 7 1 single 1
Booking 66 Mar 8 1 single 1
Booking 67 Mar 9 1 single 1
Booking 68 Mar 10 1 single 1
Booking 69 Mar 11 1 single 1
Booking 70 Mar 12 1 single 1
Booking 71 Mar 13 1 single 1
Booking 72 Mar 14 1 single 1
Booking 73 Mar 15 1 single 1
Booking 74 Mar 16 1 single 1
Booking 75 Mar 17 1 single 1
Booking 76 Mar 18 1 single 1
Booking 77 Mar 19 1 single 1
Booking 78 Mar 20 1 single 1
Booking 79 Mar 21 1 single 1
Booking 80 Mar 22 1 single 1
Booking 81 Mar 23 1 single 1
Booking 82 Mar 24 1 single 1
Booking 83 Mar 25 1 single 1
Booking 84 Mar 26 1 single 1
Booking 85 Mar 27 1 single 1
Booking 86 Mar 28 1 single 1
Booking 87 Mar 29 1 single 1
Booking 88 Mar 30 1 single 1
Booking 89 Mar 31 1 single 1
Booking 90 Apr 1 1 single 1
Booking 91 Apr 2 1 single 1
Booking 92 Apr 3 1 single 1
Booking 93 Apr 4 1 single 1
Booking 94 Apr 5 1 single 1
Booking 95 Apr 6 1 single 1
Booking 96 Apr 7 1 single 1
Booking 97 Apr 8 1 single 1
Booking 98 Apr 9 1 single 1
Booking 99 Apr 10 1 single 1
Booking 100 Apr 11 1 single 1
Booking 101 Apr 12 1 single 1
Booking 102 Apr 13 1 single 1
Booking 103 Apr 14 1 single 1
Booking 104 Apr 15 1 single 1
Booking 105 Apr 16 1 single 1
Booking 106 Apr 17 1 single 1
Booking 107 Apr 18 1 single 1
Booking 108 Apr 19 1 single 1
Booking 109 Apr 20 1 single 1
Booking 110 Apr 21 1 single 1
Booking 111 Apr 22 1 single 1
Booking 112 Apr 23 1 single 1
Booking 113 Apr 24 1 single 1
Booking 114 Apr 25 1 single 1
Booking 115 Apr 26 1 single 1
Booking 116 Apr 27 1 single 1
Booking 117 Apr 28 1 single 1
Booking 118 Apr 29 1 single 1
Booking 119 Apr 30 1 single 1
Booking 120 May 1 1 single 1
Booking 121 May 2 1 single 1
Booking 122 May 3 1 single 1
Booking 123 May 4 1 single 1
Booking 124 May 5 1 single 1
Booking 125 May 6 1 single 1
Booking 126 May 7 1 single 1
Booking 127 May 8 1 single 1
Booking 128 May 9 1 single 1
Booking 129 May 10 1 single 1
Booking 130 May 11 1 single 1
Booking 131 May 12 1 single 1
Booking 132 May 13 1 single 1
Booking 133 May 14 1 single 1
Booking 134 May 15 1 single 1
Booking 135 May 16 1 single 1
Booking 136 May 17 1 single 1
Booking 137 May 18 1 single 1
Booking 138 May 19 1 single 1
Booking 139 May 20 1 single 1
Booking 140 May 21 1 single 1
Booking 141 May 22 1 single 1
Booking 142 May 23 1 single 1
Booking 143 May 24 1 single 1
Booking 144 May 25 1 single 1
Booking 145 May 26 1 single 1
Booking 146 May 27 1 single 1
Booking 147 May 28 1 single 1
Booking 148 May 29 1 single 1
Booking 149 May 30 1 single 1
Booking 150 May 31 1 single 1
Booking 151 Jun 1 1 single 1
Booking 152 Jun 2 1 single 1
Booking 153 Jun 3 1 single 1
Booking 154 Jun 4 1 single 1
Booking 155 Jun 5 1 single 1
Booking 156 Jun 6 1 single 1
Booking 157 Jun 7 1 single 1
Booking 158 Jun 8 1 single 1
Booking 159 Jun 9 1 single 1
Booking 160 Jun 10 1 single 1
Booking 161 Jun 11 1 single 1
Booking 162 Jun 12 1 single 1
Booking 163 Jun 13 1 single 1
Booking 164 Jun 14 1 single 1
Booking 165 Jun 15 1 single 1
Booking 166 Jun 16 1 single 1
Booking 167 Jun 17 1 single 1
Booking 168 Jun 18 1 single 1
Booking 169 Jun 19 1 single 1
Booking 170 Jun 20 1 single 1
Booking 171 Jun 21 1 single 1
Booking 172 Jun 22 1 single 1
Booking 173 Jun 23 1 single 1
Booking 174 Jun 24 1 single 1
Booking 175 Jun 25 1 single 1
Booking 176 Jun 26 1 single 1
Booking 177 Jun 27 1 single 1
Booking 178 Jun 28 1 single 1
Booking 179 Jun 29 1 single 1
Booking 180 Jun 30 1 single 1
Booking 181 Jul 1 1 single 1
Booking 182 Jul 2 1 single 1
Booking 183 Jul 3 1 single 1
Booking 184 Jul 4 1 single 1
Booking 185 Jul 5 1 single 1
Booking 186 Jul 6 1 single 1
Booking 187 Jul 7 1 single 1
Booking 188 Jul 8 1 single 1
Booking 189 Jul 9 1 single 1
Booking 190 Jul 10 1 single 1
Booking 191 Jul 11 1 single 1
Booking 192 Jul 12 1 single 1
Booking 193 Jul 13 1 single 1
Booking 194 Jul 14 1 single 1
Booking 195 Jul 15 1 single 1
Booking 196 Jul 16 1 single 1
Booking 197 Jul 17 1 single 1
Booking 198 Jul 18 1 single 1
Booking 199 Jul 19 1 single 1
Booking 200 Jul 20 1 single 1
Booking 201 Jul 21 1 single 1
Booking 202 Jul 22 1 single 1
Booking 203 Jul 23 1 single 1
Booking 204 Jul 24 1 single 1
Booking 205 Jul 25 1 single 1
Booking 206 Jul 26 1 single 1
Booking 207 Jul 27 1 single 1
Booking 208 Jul 28 1 single 1
Booking 209 Jul 29 1 single 1
Booking 210 Jul 30 1 single 1
Booking  211 Jul 31 1 single 1
Booking 212 Aug 1 1 single 1
Booking 213 Aug 2 1 single 1
Booking 214 Aug 3 1 single 1
Booking 215 Aug 4 1 single 1
Booking 216 Aug 5 1 single 1
Booking 217 Aug 6 1 single 1
Booking 218 Aug 7 1 single 1
Booking 219 Aug 8 1 single 1
Booking 220 Aug 9 1 single 1
Booking 221 Aug 10 1 single 1
Booking 222 Aug 11 1 single 1
Booking 223 Aug 12 1 single 1
Booking 224 Aug 13 1 single 1
Booking 225 Aug 14 1 single 1
Booking 226 Aug 15 1 single 1
Booking 227 Aug 16 1 single 1
Booking 228 Aug 17 1 single 1
Booking 229 Aug 18 1 single 1
Booking 230 Aug 19 1 single 1
Booking 231 Aug 20 1 single 1
Booking 232 Aug 21 1 single 1
Booking 233 Aug 22 1 single 1
Booking 234 Aug 23 1 single 1
Booking 235 Aug 24 1 single 1
Booking 236 Aug 25 1 single 1
Booking 237 Aug 26 1 single 1
Booking 238 Aug 27 1 single 1
Booking 239 Aug 28 1 single 1
Booking 240 Aug 29 1 single 1
Booking 241 Aug 30 1 single 1
Booking 242 Aug 31 1 single 1
Booking 243 Sep 1 1 single 1
Booking 244 Sep 2 1 single 1
Booking 245 Sep 3 1 single 1
Booking 246 Sep 4 1 single 1
Booking 247 Sep 5 1 single 1
Booking 248 Sep 6 1 single 1
Booking 249 Sep 7 1 single 1
Booking 250 Sep 8 1 single 1
Booking 251 Sep 9 1 single 1
Booking 252 Sep 10 1 single 1
Booking 253 Sep 11 1 single 1
Booking 254 Sep 12 1 single 1
Booking 255 Sep 13 1 single 1
Booking 256 Sep 14 1 single 1
Booking 257 Sep 15 1 single 1
Booking 258 Sep 16 1 single 1
Booking 259 Sep 17 1 single 1
Booking 260 Sep 18 1 single 1
Booking 261 Sep 19 1 single 1
Booking 262 Sep 20 1 single 1
Booking 263 Sep 21 1 single 1
Booking 264 Sep 22 1 single 1
Booking 265 Sep 23 1 single 1
Booking 266 Sep 24 1 single 1
Booking 267 Sep 25 1 single 1
Booking 268 Sep 26 1 single 1
Booking 269 Sep 27 1 single 1
Booking 270 Sep 28 1 single 1
Booking 271 Sep 29 1 single 1
Booking 272 Sep 30 1 single 1
Booking 273 Oct 1 1 single 1
Booking 274 Oct 2 1 single 1
Booking 275 Oct 3 1 single 1
Booking 276 Oct 4 1 single 1
Booking 277 Oct 5 1 single 1
Booking 278 Oct 6 1 single 1
Booking 279 Oct 7 1 single 1
Booking 280 Oct 8 1 single 1
Booking 281 Oct 9 1 single 1
Booking 282 Oct 10 1 single 1
Booking 283 Oct 11 1 single 1
Booking 284 Oct 12 1 single 1
Booking 285 Oct 13 1 single 1
Booking 286 Oct 14 1 single 1
Booking 287 Oct 15 1 single 1
Booking 288 Oct 16 1 single 1
Booking 289 Oct 17 1 single 1
Booking 290 Oct 18 1 single 1
Booking 291 Oct 19 1 single 1
Booking 292 Oct 20 1 single 1
Booking 293 Oct 21 1 single 1
Booking 294 Oct 22 1 single 1
Booking 295 Oct 23 1 single 1
Booking 296 Oct 24 1 single 1
Booking 297 Oct 25 1 single 1
Booking 298 Oct 26 1 single 1
Booking 299 Oct 27 1 single 1
Booking 300 Oct 28 1 single 1
Booking 301 Oct 29 1 single 1
Booking 302 Oct 30 1 single 1
Booking 303 Oct 31 1 single 1
Booking 304 Nov 1 1 single 1
Booking 305 Nov 2 1 single 1
Booking 306 Nov 3 1 single 1
Booking 307 Nov 4 1 single 1
Booking 308 Nov 5 1 single 1
Booking 309 Nov 6 1 single 1
Booking 310 Nov 7 1 single 1
Booking 311 Nov 8 1 single 1
Booking 312 Nov 9 1 single 1
Booking 313 Nov 10 1 single 1
Booking 314 Nov 11 1 single 1
Booking 315 Nov 12 1 single 1
Booking 316 Nov 13 1 single 1
Booking 317 Nov 14 1 single 1
Booking 318 Nov 15 1 single 1
Booking 319 Nov 16 1 single 1
Booking 320 Nov 17 1 single 1
Booking 321 Nov 18 1 single 1
Booking 322 Nov 19 1 single 1
Booking 323 Nov 20 1 single 1
Booking 324 Nov 21 1 single 1
Booking 325 Nov 22 1 single 1
Booking 326 Nov 23 1 single 1
Booking 327 Nov 24 1 single 1
Booking 328 Nov 25 1 single 1
Booking 329 Nov 26 1 single 1
Booking 330 Nov 27 1 single 1
Booking 331 Nov 28 1 single 1
Booking 332 Nov 29 1 single 1
Booking 333 Nov 30 1 single 1
Booking 334 Dec 1 1 single 1
Booking 335 Dec 2 1 single 1
Booking 336 Dec 3 1 single 1
Booking 337 Dec 4 1 single 1
Booking 338 Dec 5 1 single 1
Booking 339 Dec 6 1 single 1
Booking 340 Dec 7 1 single 1
Booking 341 Dec 8 1 single 1
Booking 342 Dec 9 1 single 1
Booking 343 Dec 10 1 single 1
Booking 344 Dec 11 1 single 1
Booking 345 Dec 12 1 single 1
Booking 346 Dec 13 1 single 1
Booking 347 Dec 14 1 single 1
Booking 348 Dec 15 1 single 1
Booking 349 Dec 16 1 single 1
Booking 350 Dec 17 1 single 1
Booking 351 Dec 18 1 single 1
Booking 352 Dec 19 1 single 1
Booking 353 Dec 20 1 single 1
Booking 354 Dec 21 1 single 1
Booking 355 Dec 22 1 single 1
Booking 356 Dec 23 1 single 1
Booking 357 Dec 24 1 single 1
Booking 358 Dec 25 1 single 1
Booking 359 Dec 26 1 single 1
Booking 360 Dec 27 1 single 1
Booking 361 Dec 28 1 single 1
Booking 362 Dec 29 1 single 1
Booking 363 Dec 30 1 single 1
Booking 364 Dec 31 1 single 1
Booking 365 Jan 1 1 double 1
Booking 366 Jan 2 1 double 1
Booking 367 Jan 3 1 double 1
Booking 368 Jan 4 1 double 1
Booking 369 Jan 5 1 double 1
Booking 370 Jan 6 1 double 1
Booking 371 Jan 7 1 double 1
Booking 372 Jan 8 1 double 1
Booking 373 Jan 9 1 double 1
Booking 374 Jan 10 1 double 1
Booking 375 Jan 11 1 double 1
Booking 376 Jan 12 1 double 1
Booking 377 Jan 13 1 double 1
Booking 378 Jan 14 1 double 1
Booking 379 Jan 15 1 double 1
Booking 380 Jan 16 1 double 1
Booking 381 Jan 17 1 double 1
Booking 382 Jan 18 1 double 1
Booking 383 Jan 19 1 double 1
Booking 384 Jan 20 1 double 1
Booking 385 Jan 21 1 double 1
Booking 386 Jan 22 1 double 1
Booking 387 Jan 23 1 double 1
Booking 388 Jan 24 1 double 1
Booking 389 Jan 25 1 double 1
Booking 390 Jan 26 1 double 1
Booking 391 Jan 27 1 double 1
Booking 392 Jan 28 1 double 1
Booking 393 Jan 29 1 double 1
Booking 394 Jan 30 1 double 1
Booking 395 Jan 31 1 double 1
Booking 396 Feb 1 1 double 1
Booking 397 Feb 2 1 double 1
Booking 398 Feb 3 1 double 1
Booking 399 Feb 4 1 double 1
Booking 400 Feb 5 1 double 1
Booking 401 Feb 6 1 double 1
Booking 402 Feb 7 1 double 1
Booking 403 Feb 8 1 double 1
Booking 404 Feb 9 1 double 1
Booking 405 Feb 10 1 double 1
Booking 406 Feb 11 1 double 1
Booking 407 Feb 12 1 double 1
Booking 408 Feb 13 1 double 1
Booking 409 Feb 14 1 double 1
Booking 410 Feb 15 1 double 1
Booking 411 Feb 16 1 double 1
Booking 412 Feb 17 1 double 1
Booking 413 Feb 18 1 double 1
Booking 414 Feb 19 1 double 1
Booking 415 Feb 20 1 double 1
Booking 416 Feb 21 1 double 1
Booking 417 Feb 22 1 double 1
Booking 418 Feb 23 1 double 1
Booking 419 Feb 24 1 double 1
Booking 420 Feb 25 1 double 1
Booking 421 Feb 26 1 double 1
Booking 422 Feb 27 1 double 1
Booking 423 Feb 28 1 double 1
Booking 424 Mar 1 1 double 1
Booking 425 Mar 2 1 double 1
Booking 426 Mar 3 1 double 1
Booking 427 Mar 4 1 double 1
Booking 428 Mar 5 1 double 1
Booking 429 Mar 6 1 double 1
Booking 430 Mar 7 1 double 1
Booking 431 Mar 8 1 double 1
Booking 432 Mar 9 1 double 1
Booking 433 Mar 10 1 double 1
Booking 434 Mar 11 1 double 1
Booking 435 Mar 12 1 double 1
Booking 436 Mar 13 1 double 1
Booking 437 Mar 14 1 double 1
Booking 438 Mar 15 1 double 1
Booking 439 Mar 16 1 double 1
Booking 440 Mar 17 1 double 1
Booking 441 Mar 18 1 double 1
Booking 442 Mar 19 1 double 1
Booking 443 Mar 20 1 double 1
Booking 444 Mar 21 1 double 1
Booking 445 Mar 22 1 double 1
Booking 446 Mar 23 1 double 1
Booking 447 Mar 24 1 double 1
Booking 448 Mar 25 1 double 1
Booking 449 Mar 26 1 double 1
Booking 450 Mar 27 1 double 1
Booking 451 Mar 28 1 double 1
Booking 452 Mar 29 1 double 1
Booking 453 Mar 30 1 double 1
Booking 454 Mar 31 1 double 1
Booking 455 Apr 1 1 double 1
Booking 456 Apr 2 1 double 1
Booking 457 Apr 3 1 double 1
Booking 458 Apr 4 1 double 1
Booking 459 Apr 5 1 double 1
Booking 460 Apr 6 1 double 1
Booking 461 Apr 7 1 double 1
Booking 462 Apr 8 1 double 1
Booking 463 Apr 9 1 double 1
Booking 464 Apr 10 1 double 1
Booking 465 Apr 11 1 double 1
Booking 466 Apr 12 1 double 1
Booking 467 Apr 13 1 double 1
Booking 468 Apr 14 1 double 1
Booking 469 Apr 15 1 double 1
Booking 470 Apr 16 1 double 1
Booking 471 Apr 17 1 double 1
Booking 472 Apr 18 1 double 1
Booking 473 Apr 19 1 double 1
Booking 474 Apr 20 1 double 1
Booking 475 Apr 21 1 double 1
Booking 476 Apr 22 1 double 1
Booking 477 Apr 23 1 double 1
Booking 478 Apr 24 1 double 1
Booking 479 Apr 25 1 double 1
Booking 480 Apr 26 1 double 1
Booking 481 Apr 27 1 double 1
Booking 482 Apr 28 1 double 1
Booking 483 Apr 29 1 double 1
Booking 484 Apr 30 1 double 1
Booking 485 May 1 1 double 1
Booking 486 May 2 1 double 1
Booking 487 May 3 1 double 1
Booking 488 May 4 1 double 1
Booking 489 May 5 1 double 1
Booking 490 May 6 1 double 1
Booking 491 May 7 1 double 1
Booking 492 May 8 1 double 1
Booking 493 May 9 1 double 1
Booking 494 May 10 1 double 1
Booking 495 May 11 1 double 1
Booking 496 May 12 1 double 1
Booking 497 May 13 1 double 1
Booking 498 May 14 1 double 1
Booking 499 May 15 1 double 1
Booking 500 May 16 1 double 1
Booking 501 May 17 1 double 1
Booking 502 May 18 1 double 1
Booking 503 May 19 1 double 1
Booking 504 May 20 1 double 1
Booking 505 May 21 1 double 1
Booking 506 May 22 1 double 1
Booking 507 May 23 1 double 1
Booking 508 May 24 1 double 1
Booking 509 May 25 1 double 1
Booking 510 May 26 1 double 1
Booking 511 May 27 1 double 1
Booking 512 May 28 1 double 1
Booking 513 May 29 1 double 1
Booking 514 May 30 1 double 1
Booking 515 May 31 1 double 1
Booking 516 Jun 1 1 double 1
Booking 517 Jun 2 1 double 1
Booking 518 Jun 3 1 double 1
Booking 519 Jun 4 1 double 1
Booking 520 Jun 5 1 double 1
Booking 521 Jun 6 1 double 1
Booking 522 Jun 7 1 double 1
Booking 523 Jun 8 1 double 1
Booking 524 Jun 9 1 double 1
Booking 525 Jun 10 1 double 1
Booking 526 Jun 11 1 double 1
Booking 527 Jun 12 1 double 1
Booking 528 Jun 13 1 double 1
Booking 529 Jun 14 1 double 1
Booking 530 Jun 15 1 double 1
Booking 531 Jun 16 1 double 1
Booking 532 Jun 17 1 double 1
Booking 533 Jun 18 1 double 1
Booking 534 Jun 19 1 double 1
Booking 535 Jun 20 1 double 1
Booking 536 Jun 21 1 double 1
Booking 537 Jun 22 1 double 1
Booking 538 Jun 23 1 double 1
Booking 539 Jun 24 1 double 1
Booking 540 Jun 25 1 double 1
Booking 541 Jun 26 1 double 1
Booking 542 Jun 27 1 double 1
Booking 543 Jun 28 1 double 1
Booking 544 Jun 29 1 double 1
Booking 545 Jun 30 1 double 1
Booking 546 Jul 1 1 double 1
Booking 547 Jul 2 1 double 1
Booking 548 Jul 3 1 double 1
Booking 549 Jul 4 1 double 1
Booking 550 Jul 5 1 double 1
Booking 551 Jul 6 1 double 1
Booking 552 Jul 7 1 double 1
Booking 553 Jul 8 1 double 1
Booking 554 Jul 9 1 double 1
Booking 555 Jul 10 1 double 1
Booking 556 Jul 11 1 double 1
Booking 557 Jul 12 1 double 1
Booking 558 Jul 13 1 double 1
Booking 559 Jul 14 1 double 1
Booking 560 Jul 15 1 double 1
Booking 561 Jul 16 1 double 1
Booking 562 Jul 17 1 double 1
Booking 563 Jul 18 1 double 1
Booking 564 Jul 19 1 double 1
Booking 565 Jul 20 1 double 1
Booking 566 Jul 21 1 double 1
Booking 567 Jul 22 1 double 1
Booking 568 Jul 23 1 double 1
Booking 569 Jul 24 1 double 1
Booking 570 Jul 25 1 double 1
Booking 571 Jul 26 1 double 1
Booking 572 Jul 27 1 double 1
Booking 573 Jul 28 1 double 1
Booking 574 Jul 29 1 double 1
Booking 575 Jul 30 1 double 1
Booking  576 Jul 31 1 double 1
Booking 577 Aug 1 1 double 1
Booking 578 Aug 2 1 double 1
Booking 579 Aug 3 1 double 1
Booking 580 Aug 4 1 double 1
Booking 581 Aug 5 1 double 1
Booking 582 Aug 6 1 double 1
Booking 583 Aug 7 1 double 1
Booking 584 Aug 8 1 double 1
Booking 585 Aug 9 1 double 1
Booking 586 Aug 10 1 double 1
Booking 587 Aug 11 1 double 1
Booking 588 Aug 12 1 double 1
Booking 589 Aug 13 1 double 1
Booking 590 Aug 14 1 double 1
Booking 591 Aug 15 1 double 1
Booking 592 Aug 16 1 double 1
Booking 593 Aug 17 1 double 1
Booking 594 Aug 18 1 double 1
Booking 595 Aug 19 1 double 1
Booking 596 Aug 20 1 double 1
Booking 597 Aug 21 1 double 1
Booking 598 Aug 22 1 double 1
Booking 599 Aug 23 1 double 1
Booking 600 Aug 24 1 double 1
Booking 601 Aug 25 1 double 1
Booking 602 Aug 26 1 double 1
Booking 603 Aug 27 1 double 1
Booking 604 Aug 28 1 double 1
Booking 605 Aug 29 1 double 1
Booking 606 Aug 30 1 double 1
Booking 607 Aug 31 1 double 1
Booking 608 Sep 1 1 double 1
Booking 609 Sep 2 1 double 1
Booking 610 Sep 3 1 double 1
Booking 611 Sep 4 1 double 1
Booking 612 Sep 5 1 double 1
Booking 613 Sep 6 1 double 1
Booking 614 Sep 7 1 double 1
Booking 615 Sep 8 1 double 1
Booking 616 Sep 9 1 double 1
Booking 617 Sep 10 1 double 1
Booking 618 Sep 11 1 double 1
Booking 619 Sep 12 1 double 1
Booking 620 Sep 13 1 double 1
Booking 621 Sep 14 1 double 1
Booking 622 Sep 15 1 double 1
Booking 623 Sep 16 1 double 1
Booking 624 Sep 17 1 double 1
Booking 625 Sep 18 1 double 1
Booking 626 Sep 19 1 double 1
Booking 627 Sep 20 1 double 1
Booking 628 Sep 21 1 double 1
Booking 629 Sep 22 1 double 1
Booking 630 Sep 23 1 double 1
Booking 631 Sep 24 1 double 1
Booking 632 Sep 25 1 double 1
Booking 633 Sep 26 1 double 1
Booking 634 Sep 27 1 double 1
Booking 635 Sep 28 1 double 1
Booking 636 Sep 29 1 double 1
Booking 637 Sep 30 1 double 1
Booking 638 Oct 1 1 double 1
Booking 639 Oct 2 1 double 1
Booking 640 Oct 3 1 double 1
Booking 641 Oct 4 1 double 1
Booking 642 Oct 5 1 double 1
Booking 643 Oct 6 1 double 1
Booking 644 Oct 7 1 double 1
Booking 645 Oct 8 1 double 1
Booking 646 Oct 9 1 double 1
Booking 647 Oct 10 1 double 1
Booking 648 Oct 11 1 double 1
Booking 649 Oct 12 1 double 1
Booking 650 Oct 13 1 double 1
Booking 651 Oct 14 1 double 1
Booking 652 Oct 15 1 double 1
Booking 653 Oct 16 1 double 1
Booking 654 Oct 17 1 double 1
Booking 655 Oct 18 1 double 1
Booking 656 Oct 19 1 double 1
Booking 657 Oct 20 1 double 1
Booking 658 Oct 21 1 double 1
Booking 659 Oct 22 1 double 1
Booking 660 Oct 23 1 double 1
Booking 661 Oct 24 1 double 1
Booking 662 Oct 25 1 double 1
Booking 663 Oct 26 1 double 1
Booking 664 Oct 27 1 double 1
Booking 665 Oct 28 1 double 1
Booking 666 Oct 29 1 double 1
Booking 667 Oct 30 1 double 1
Booking 668 Oct 31 1 double 1
Booking 669 Nov 1 1 double 1
Booking 670 Nov 2 1 double 1
Booking 671 Nov 3 1 double 1
Booking 672 Nov 4 1 double 1
Booking 673 Nov 5 1 double 1
Booking 674 Nov 6 1 double 1
Booking 675 Nov 7 1 double 1
Booking 676 Nov 8 1 double 1
Booking 677 Nov 9 1 double 1
Booking 678 Nov 10 1 double 1
Booking 679 Nov 11 1 double 1
Booking 680 Nov 12 1 double 1
Booking 681 Nov 13 1 double 1
Booking 682 Nov 14 1 double 1
Booking 683 Nov 15 1 double 1
Booking 684 Nov 16 1 double 1
Booking 685 Nov 17 1 double 1
Booking 686 Nov 18 1 double 1
Booking 687 Nov 19 1 double 1
Booking 688 Nov 20 1 double 1
Booking 689 Nov 21 1 double 1
Booking 690 Nov 22 1 double 1
Booking 691 Nov 23 1 double 1
Booking 692 Nov 24 1 double 1
Booking 693 Nov 25 1 double 1
Booking 694 Nov 26 1 double 1
Booking 695 Nov 27 1 double 1
Booking 696 Nov 28 1 double 1
Booking 697 Nov 29 1 double 1
Booking 698 Nov 30 1 double 1
Booking 699 Dec 1 1 double 1
Booking 700 Dec 2 1 double 1
Booking 701 Dec 3 1 double 1
Booking 702 Dec 4 1 double 1
Booking 703 Dec 5 1 double 1
Booking 704 Dec 6 1 double 1
Booking 705 Dec 7 1 double 1
Booking 706 Dec 8 1 double 1
Booking 707 Dec 9 1 double 1
Booking 708 Dec 10 1 double 1
Booking 709 Dec 11 1 double 1
Booking 710 Dec 12 1 double 1
Booking 711 Dec 13 1 double 1
Booking 712 Dec 14 1 double 1
Booking 713 Dec 15 1 double 1
Booking 714 Dec 16 1 double 1
Booking 715 Dec 17 1 double 1
Booking 716 Dec 18 1 double 1
Booking 717 Dec 19 1 double 1
Booking 718 Dec 20 1 double 1
Booking 719 Dec 21 1 double 1
Booking 720 Dec 22 1 double 1
Booking 721 Dec 23 1 double 1
Booking 722 Dec 24 1 double 1
Booking 723 Dec 25 1 double 1
Booking 724 Dec 26 1 double 1
Booking 725 Dec 27 1 double 1
Booking 726 Dec 28 1 double 1
Booking 727 Dec 29 1 double 1
Booking 728 Dec 30 1 double 1
Booking 729 Dec 31 1 double 1

Booking 730 Jan 1 1 triple 1
Booking 731 Jan 2 1 triple 1
Booking 732 Jan 3 1 triple 1
Booking 733 Jan 4 1 triple 1
Booking 734 Jan 5 1 triple 1
Booking 735 Jan 6 1 triple 1
Booking 736 Jan 7 1 triple 1
Booking 737 Jan 8 1 triple 1
Booking 738 Jan 9 1 triple 1
Booking 739 Jan 10 1 triple 1
Booking 740 Jan 11 1 triple 1
Booking 741 Jan 12 1 triple 1
Booking 742 Jan 13 1 triple 1
Booking 743 Jan 14 1 triple 1
Booking 744 Jan 15 1 triple 1
Booking 745 Jan 16 1 triple 1
Booking 746 Jan 17 1 triple 1
Booking 747 Jan 18 1 triple 1
Booking 748 Jan 19 1 triple 1
Booking 749 Jan 20 1 triple 1
Booking 750 Jan 21 1 triple 1
Booking 751 Jan 22 1 triple 1
Booking 752 Jan 23 1 triple 1
Booking 753 Jan 24 1 triple 1
Booking 754 Jan 25 1 triple 1
Booking 755 Jan 26 1 triple 1
Booking 756 Jan 27 1 triple 1
Booking 757 Jan 28 1 triple 1
Booking 758 Jan 29 1 triple 1
Booking 759 Jan 30 1 triple 1
Booking 760 Jan 31 1 triple 1
Booking 761 Feb 1 1 triple 1
Booking 762 Feb 2 1 triple 1
Booking 763 Feb 3 1 triple 1
Booking 764 Feb 4 1 triple 1
Booking 765 Feb 5 1 triple 1
Booking 766 Feb 6 1 triple 1
Booking 767 Feb 7 1 triple 1
Booking 768 Feb 8 1 triple 1
Booking 769 Feb 9 1 triple 1
Booking 770 Feb 10 1 triple 1
Booking 771 Feb 11 1 triple 1
Booking 772 Feb 12 1 triple 1
Booking 773 Feb 13 1 triple 1
Booking 774 Feb 14 1 triple 1
Booking 775 Feb 15 1 triple 1
Booking 776 Feb 16 1 triple 1
Booking 777 Feb 17 1 triple 1
Booking 778 Feb 18 1 triple 1
Booking 779 Feb 19 1 triple 1
Booking 780 Feb 20 1 triple 1
Booking 781 Feb 21 1 triple 1
Booking 782 Feb 22 1 triple 1
Booking 783 Feb 23 1 triple 1
Booking 784 Feb 24 1 triple 1
Booking 785 Feb 25 1 triple 1
Booking 786 Feb 26 1 triple 1
Booking 787 Feb 27 1 triple 1
Booking 788 Feb 28 1 triple 1
Booking 789 Mar 1 1 triple 1
Booking 790 Mar 2 1 triple 1
Booking 791 Mar 3 1 triple 1
Booking 792 Mar 4 1 triple 1
Booking 793 Mar 5 1 triple 1
Booking 794 Mar 6 1 triple 1
Booking 795 Mar 7 1 triple 1
Booking 796 Mar 8 1 triple 1
Booking 797 Mar 9 1 triple 1
Booking 798 Mar 10 1 triple 1
Booking 799 Mar 11 1 triple 1
Booking 800 Mar 12 1 triple 1
Booking 801 Mar 13 1 triple 1
Booking 802 Mar 14 1 triple 1
Booking 803 Mar 15 1 triple 1
Booking 804 Mar 16 1 triple 1
Booking 805 Mar 17 1 triple 1
Booking 806 Mar 18 1 triple 1
Booking 807 Mar 19 1 triple 1
Booking 808 Mar 20 1 triple 1
Booking 809 Mar 21 1 triple 1
Booking 810 Mar 22 1 triple 1
Booking 811 Mar 23 1 triple 1
Booking 812 Mar 24 1 triple 1
Booking 813 Mar 25 1 triple 1
Booking 814 Mar 26 1 triple 1
Booking 815 Mar 27 1 triple 1
Booking 816 Mar 28 1 triple 1
Booking 817 Mar 29 1 triple 1
Booking 818 Mar 30 1 triple 1
Booking 819 Mar 31 1 triple 1
Booking 820 Apr 1 1 triple 1
Booking 821 Apr 2 1 triple 1
Booking 822 Apr 3 1 triple 1
Booking 823 Apr 4 1 triple 1
Booking 824 Apr 5 1 triple 1
Booking 825 Apr 6 1 triple 1
Booking 826 Apr 7 1 triple 1
Booking 827 Apr 8 1 triple 1
Booking 828 Apr 9 1 triple 1
Booking 829 Apr 10 1 triple 1
Booking 830 Apr 11 1 triple 1
Booking 831 Apr 12 1 triple 1
Booking 832 Apr 13 1 triple 1
Booking 833 Apr 14 1 triple 1
Booking 834 Apr 15 1 triple 1
Booking 835 Apr 16 1 triple 1
Booking 836 Apr 17 1 triple 1
Booking 837 Apr 18 1 triple 1
Booking 838 Apr 19 1 triple 1
Booking 839 Apr 20 1 triple 1
Booking 840 Apr 21 1 triple 1
Booking 841 Apr 22 1 triple 1
Booking 842 Apr 23 1 triple 1
Booking 843 Apr 24 1 triple 1
Booking 844 Apr 25 1 triple 1
Booking 845 Apr 26 1 triple 1
Booking 846 Apr 27 1 triple 1
Booking 847 Apr 28 1 triple 1
Booking 848 Apr 29 1 triple 1
Booking 849 Apr 30 1 triple 1
Booking 850 May 1 1 triple 1
Booking 851 May 2 1 triple 1
Booking 852 May 3 1 triple 1
Booking 853 May 4 1 triple 1
Booking 854 May 5 1 triple 1
Booking 855 May 6 1 triple 1
Booking 856 May 7 1 triple 1
Booking 857 May 8 1 triple 1
Booking 858 May 9 1 triple 1
Booking 859 May 10 1 triple 1
Booking 860 May 11 1 triple 1
Booking 861 May 12 1 triple 1
Booking 862 May 13 1 triple 1
Booking 863 May 14 1 triple 1
Booking 864 May 15 1 triple 1
Booking 865 May 16 1 triple 1
Booking 866 May 17 1 triple 1
Booking 867 May 18 1 triple 1
Booking 868 May 19 1 triple 1
Booking 869 May 20 1 triple 1
Booking 870 May 21 1 triple 1
Booking 871 May 22 1 triple 1
Booking 872 May 23 1 triple 1
Booking 873 May 24 1 triple 1
Booking 874 May 25 1 triple 1
Booking 875 May 26 1 triple 1
Booking 876 May 27 1 triple 1
Booking 877 May 28 1 triple 1
Booking 878 May 29 1 triple 1
Booking 879 May 30 1 triple 1
Booking 880 May 31 1 triple 1
Booking 881 Jun 1 1 triple 1
Booking 882 Jun 2 1 triple 1
Booking 883 Jun 3 1 triple 1
Booking 884 Jun 4 1 triple 1
Booking 885 Jun 5 1 triple 1
Booking 886 Jun 6 1 triple 1
Booking 887 Jun 7 1 triple 1
Booking 888 Jun 8 1 triple 1
Booking 889 Jun 9 1 triple 1
Booking 890 Jun 10 1 triple 1
Booking 891 Jun 11 1 triple 1
Booking 892 Jun 12 1 triple 1
Booking 893 Jun 13 1 triple 1
Booking 894 Jun 14 1 triple 1
Booking 895 Jun 15 1 triple 1
Booking 896 Jun 16 1 triple 1
Booking 897 Jun 17 1 triple 1
Booking 898 Jun 18 1 triple 1
Booking 899 Jun 19 1 triple 1
Booking 900 Jun 20 1 triple 1
Booking 901 Jun 21 1 triple 1
Booking 902 Jun 22 1 triple 1
Booking 903 Jun 23 1 triple 1
Booking 904 Jun 24 1 triple 1
Booking 905 Jun 25 1 triple 1
Booking 906 Jun 26 1 triple 1
Booking 907 Jun 27 1 triple 1
Booking 908 Jun 28 1 triple 1
Booking 909 Jun 29 1 triple 1
Booking 910 Jun 30 1 triple 1
Booking 911 Jul 1 1 triple 1
Booking 912 Jul 2 1 triple 1
Booking 913 Jul 3 1 triple 1
Booking 914 Jul 4 1 triple 1
Booking 915 Jul 5 1 triple 1
Booking 916 Jul 6 1 triple 1
Booking 917 Jul 7 1 triple 1
Booking 918 Jul 8 1 triple 1
Booking 919 Jul 9 1 triple 1
Booking 920 Jul 10 1 triple 1
Booking 921 Jul 11 1 triple 1
Booking 922 Jul 12 1 triple 1
Booking 923 Jul 13 1 triple 1
Booking 924 Jul 14 1 triple 1
Booking 925 Jul 15 1 triple 1
Booking 926 Jul 16 1 triple 1
Booking 927 Jul 17 1 triple 1
Booking 928 Jul 18 1 triple 1
Booking 929 Jul 19 1 triple 1
Booking 930 Jul 20 1 triple 1
Booking 931 Jul 21 1 triple 1
Booking 932 Jul 22 1 triple 1
Booking 933 Jul 23 1 triple 1
Booking 934 Jul 24 1 triple 1
Booking 935 Jul 25 1 triple 1
Booking 936 Jul 26 1 triple 1
Booking 937 Jul 27 1 triple 1
Booking 938 Jul 28 1 triple 1
Booking 939 Jul 29 1 triple 1
Booking 940 Jul 30 1 triple 1
Booking  941 Jul 31 1 triple 1
Booking 942 Aug 1 1 triple 1
Booking 943 Aug 2 1 triple 1
Booking 944 Aug 3 1 triple 1
Booking 945 Aug 4 1 triple 1
Booking 946 Aug 5 1 triple 1
Booking 947 Aug 6 1 triple 1
Booking 948 Aug 7 1 triple 1
Booking 949 Aug 8 1 triple 1
Booking 950 Aug 9 1 triple 1
Booking 951 Aug 10 1 triple 1
Booking 952 Aug 11 1 triple 1
Booking 953 Aug 12 1 triple 1
Booking 954 Aug 13 1 triple 1
Booking 955 Aug 14 1 triple 1
Booking 956 Aug 15 1 triple 1
Booking 957 Aug 16 1 triple 1
Booking 958 Aug 17 1 triple 1
Booking 959 Aug 18 1 triple 1
Booking 960 Aug 19 1 triple 1
Booking 961 Aug 20 1 triple 1
Booking 962 Aug 21 1 triple 1
Booking 963 Aug 22 1 triple 1
Booking 964 Aug 23 1 triple 1
Booking 965 Aug 24 1 triple 1
Booking 966 Aug 25 1 triple 1
Booking 967 Aug 26 1 triple 1
Booking 968 Aug 27 1 triple 1
Booking 969 Aug 28 1 triple 1
Booking 970 Aug 29 1 triple 1
Booking 971 Aug 30 1 triple 1
Booking 972 Aug 31 1 triple 1
Booking 973 Sep 1 1 triple 1
Booking 974 Sep 2 1 triple 1
Booking 975 Sep 3 1 triple 1
Booking 976 Sep 4 1 triple 1
Booking 977 Sep 5 1 triple 1
Booking 978 Sep 6 1 triple 1
Booking 979 Sep 7 1 triple 1
Booking 980 Sep 8 1 triple 1
Booking 981 Sep 9 1 triple 1
Booking 982 Sep 10 1 triple 1
Booking 983 Sep 11 1 triple 1
Booking 984 Sep 12 1 triple 1
Booking 985 Sep 13 1 triple 1
Booking 986 Sep 14 1 triple 1
Booking 987 Sep 15 1 triple 1
Booking 988 Sep 16 1 triple 1
Booking 989 Sep 17 1 triple 1
Booking 990 Sep 18 1 triple 1
Booking 991 Sep 19 1 triple 1
Booking 992 Sep 20 1 triple 1
Booking 993 Sep 21 1 triple 1
Booking 994 Sep 22 1 triple 1
Booking 995 Sep 23 1 triple 1
Booking 996 Sep 24 1 triple 1
Booking 997 Sep 25 1 triple 1
Booking 998 Sep 26 1 triple 1
Booking 999 Sep 27 1 triple 1
Booking 1000 Sep 28 1 triple 1
Booking 1001 Sep 29 1 triple 1
Booking 1002 Sep 30 1 triple 1
Booking 1003 Oct 1 1 triple 1
Booking 1004 Oct 2 1 triple 1
Booking 1005 Oct 3 1 triple 1
Booking 1006 Oct 4 1 triple 1
Booking 1007 Oct 5 1 triple 1
Booking 1008 Oct 6 1 triple 1
Booking 1009 Oct 7 1 triple 1
Booking 1010 Oct 8 1 triple 1
Booking 1011 Oct 9 1 triple 1
Booking 1012 Oct 10 1 triple 1
Booking 1013 Oct 11 1 triple 1
Booking 1014 Oct 12 1 triple 1
Booking 1015 Oct 13 1 triple 1
Booking 1016 Oct 14 1 triple 1
Booking 1017 Oct 15 1 triple 1
Booking 1018 Oct 16 1 triple 1
Booking 1019 Oct 17 1 triple 1
Booking 1020 Oct 18 1 triple 1
Booking 1021 Oct 19 1 triple 1
Booking 1022 Oct 20 1 triple 1
Booking 1023 Oct 21 1 triple 1
Booking 1024 Oct 22 1 triple 1
Booking 1025 Oct 23 1 triple 1
Booking 1026 Oct 24 1 triple 1
Booking 1027 Oct 25 1 triple 1
Booking 1028 Oct 26 1 triple 1
Booking 1029 Oct 27 1 triple 1
Booking 1030 Oct 28 1 triple 1
Booking 1031 Oct 29 1 triple 1
Booking 1032 Oct 30 1 triple 1
Booking 1033 Oct 31 1 triple 1
Booking 1034 Nov 1 1 triple 1
Booking 1035 Nov 2 1 triple 1
Booking 1036 Nov 3 1 triple 1
Booking 1037 Nov 4 1 triple 1
Booking 1038 Nov 5 1 triple 1
Booking 1039 Nov 6 1 triple 1
Booking 1040 Nov 7 1 triple 1
Booking 1041 Nov 8 1 triple 1
Booking 1042 Nov 9 1 triple 1
Booking 1043 Nov 10 1 triple 1
Booking 1044 Nov 11 1 triple 1
Booking 1045 Nov 12 1 triple 1
Booking 1046 Nov 13 1 triple 1
Booking 1047 Nov 14 1 triple 1
Booking 1048 Nov 15 1 triple 1
Booking 1049 Nov 16 1 triple 1
Booking 1050 Nov 17 1 triple 1
Booking 1051 Nov 18 1 triple 1
Booking 1052 Nov 19 1 triple 1
Booking 1053 Nov 20 1 triple 1
Booking 1054 Nov 21 1 triple 1
Booking 1055 Nov 22 1 triple 1
Booking 1056 Nov 23 1 triple 1
Booking 1057 Nov 24 1 triple 1
Booking 1058 Nov 25 1 triple 1
Booking 1059 Nov 26 1 triple 1
Booking 1060 Nov 27 1 triple 1
Booking 1061 Nov 28 1 triple 1
Booking 1062 Nov 29 1 triple 1
Booking 1063 Nov 30 1 triple 1
Booking 1064 Dec 1 1 triple 1
Booking 1065 Dec 2 1 triple 1
Booking 1066 Dec 3 1 triple 1
Booking 1067 Dec 4 1 triple 1
Booking 1068 Dec 5 1 triple 1
Booking 1069 Dec 6 1 triple 1
Booking 1070 Dec 7 1 triple 1
Booking 1071 Dec 8 1 triple 1
Booking 1072 Dec 9 1 triple 1
Booking 1073 Dec 10 1 triple 1
Booking 1074 Dec 11 1 triple 1
Booking 1075 Dec 12 1 triple 1
Booking 1076 Dec 13 1 triple 1
Booking 1077 Dec 14 1 triple 1
Booking 1078 Dec 15 1 triple 1
Booking 1079 Dec 16 1 triple 1
Booking 1080 Dec 17 1 triple 1
Booking 1081 Dec 18 1 triple 1
Booking 1082 Dec 19 1 triple 1
Booking 1083 Dec 20 1 triple 1
Booking 1084 Dec 21 1 triple 1
Booking 1085 Dec 22 1 triple 1
Booking 1086 Dec 23 1 triple 1
Booking 1087 Dec 24 1 triple 1
Booking 1088 Dec 25 1 triple 1
Booking 1089 Dec 26 1 triple 1
Booking 1090 Dec 27 1 triple 1
Booking 1091 Dec 28 1 triple 1
Booking 1092 Dec 29 1 triple 1
Booking 1093 Dec 30 1 triple 1
Booking 1094 Dec 31 1 triple 1
Cancel 0   
Cancel 1   
Cancel 2   
Cancel 3   
Cancel 4   
Cancel 5   
Cancel 6   
Cancel 7   
Cancel 8   
Cancel 9   
Cancel 10   
Cancel 11   
Cancel 12   
Cancel 13   
Cancel 14   
Cancel 15   
Cancel 16   
Cancel 17   
Cancel 18   
Cancel 19   
Cancel 20   
Cancel 21   
Cancel 22   
Cancel 23   
Cancel 24   
Cancel 25   
Cancel 26   
Cancel 27   
Cancel 28   
Cancel 29   
Cancel 30   
Cancel 31   
Cancel 32   
Cancel 33   
Cancel 34   
Cancel 35   
Cancel 36   
Cancel 37   
Cancel 38   
Cancel 39   
Cancel 40   
Cancel 41   
Cancel 42   
Cancel 43   
Cancel 44   
Cancel 45   
Cancel 46   
Cancel 47   
Cancel 48   
Cancel 49   
Cancel 50   
Cancel 51   
Cancel 52   
Cancel 53   
Cancel 54   
Cancel 55   
Cancel 56   
Cancel 57   
Cancel 58   
Cancel 59   
Cancel 60   
Cancel 61   
Cancel 62   
Cancel 63   
Cancel 64   
Cancel 65   
Cancel 66   
Cancel 67   
Cancel 68   
Cancel 69   
Cancel 70   
Cancel 71   
Cancel 72   
Cancel 73   
Cancel 74   
Cancel 75   
Cancel 76   
Cancel 77   
Cancel 78   
Cancel 79   
Cancel 80   
Cancel 81   
Cancel 82   
Cancel 83   
Cancel 84   
Cancel 85   
Cancel 86   
Cancel 87   
Cancel 88   
Cancel 89   
Cancel 90   
Cancel 91   
Cancel 92   
Cancel 93   
Cancel 94   
Cancel 95   
Cancel 96   
Cancel 97   
Cancel 98   
Cancel 99   
Cancel 100   
Cancel 101   
Cancel 102   
Cancel 103   
Cancel 104   
Cancel 105   
Cancel 106   
Cancel 107   
Cancel 108   
Cancel 109   
Cancel 110   
Cancel 111   
Cancel 112   
Cancel 113   
Cancel 114   
Cancel 115   
Cancel 116   
Cancel 117   
Cancel 118   
Cancel 119   
Cancel 120   
Cancel 121   
Cancel 122   
Cancel 123   
Cancel 124   
Cancel 125   
Cancel 126   
Cancel 127   
Cancel 128   
Cancel 129   
Cancel 130   
Cancel 131   
Cancel 132   
Cancel 133   
Cancel 134   
Cancel 135   
Cancel 136   
Cancel 137   
Cancel 138   
Cancel 139   
Cancel 140   
Cancel 141   
Cancel 142   
Cancel 143   
Cancel 144   
Cancel 145   
Cancel 146   
Cancel 147   
Cancel 148   
Cancel 149   
Cancel 150   
Cancel 151   
Cancel 152   
Cancel 153   
Cancel 154   
Cancel 155   
Cancel 156   
Cancel 157   
Cancel 158   
Cancel 159   
Cancel 160   
Cancel 161   
Cancel 162   
Cancel 163   
Cancel 164   
Cancel 165   
Cancel 166   
Cancel 167   
Cancel 168   
Cancel 169   
Cancel 170   
Cancel 171   
Cancel 172   
Cancel 173   
Cancel 174   
Cancel 175   
Cancel 176   
Cancel 177   
Cancel 178   
Cancel 179   
Cancel 180   
Cancel 181   
Cancel 182   
Cancel 183   
Cancel 184   
Cancel 185   
Cancel 186   
Cancel 187   
Cancel 188   
Cancel 189   
Cancel 190   
Cancel 191   
Cancel 192   
Cancel 193   
Cancel 194   
Cancel 195   
Cancel 196   
Cancel 197   
Cancel 198   
Cancel 199   
Cancel 200   
Cancel 201   
Cancel 202   
Cancel 203   
Cancel 204   
Cancel 205   
Cancel 206   
Cancel 207   
Cancel 208   
Cancel 209   
Cancel 210   
Cancel 211   
Cancel 212   
Cancel 213   
Cancel 214   
Cancel 215   
Cancel 216   
Cancel 217   
Cancel 218   
Cancel 219   
Cancel 220   
Cancel 221   
Cancel 222   
Cancel 223   
Cancel 224   
Cancel 225   
Cancel 226   
Cancel 227   
Cancel 228   
Cancel 229   
Cancel 230   
Cancel 231   
Cancel 232   
Cancel 233   
Cancel 234   
Cancel 235   
Cancel 236   
Cancel 237   
Cancel 238   
Cancel 239   
Cancel 240   
Cancel 241   
Cancel 242   
Cancel 243   
Cancel 244   
Cancel 245   
Cancel 246   
Cancel 247   
Cancel 248   
Cancel 249   
Cancel 250   
Cancel 251   
Cancel 252   
Cancel 253   
Cancel 254   
Cancel 255   
Cancel 256   
Cancel 257   
Cancel 258   
Cancel 259   
Cancel 260   
Cancel 261   
Cancel 262   
Cancel 263   
Cancel 264   
Cancel 265   
Cancel 266   
Cancel 267   
Cancel 268   
Cancel 269   
Cancel 270   
Cancel 271   
Cancel 272   
Cancel 273   
Cancel 274   
Cancel 275   
Cancel 276   
Cancel 277   
Cancel 278   
Cancel 279   
Cancel 280   
Cancel 281   
Cancel 282   
Cancel 283   
Cancel 284   
Cancel 285   
Cancel 286   
Cancel 287   
Cancel 288   
Cancel 289   
Cancel 290   
Cancel 291   
Cancel 292   
Cancel 293   
Cancel 294   
Cancel 295   
Cancel 296   
Cancel 297   
Cancel 298   
Cancel 299   
Cancel 300   
Cancel 301   
Cancel 302   
Cancel 303   
Cancel 304   
Cancel 305   
Cancel 306   
Cancel 307   
Cancel 308   
Cancel 309   
Cancel 310   
Cancel 311   
Cancel 312   
Cancel 313   
Cancel 314   
Cancel 315   
Cancel 316   
Cancel 317   
Cancel 318   
Cancel 319   
Cancel 320   
Cancel 321   
Cancel 322   
Cancel 323   
Cancel 324   
Cancel 325   
Cancel 326   
Cancel 327   
Cancel 328   
Cancel 329   
Cancel 330   
Cancel 331   
Cancel 332   
Cancel 333   
Cancel 334   
Cancel 335   
Cancel 336   
Cancel 337   
Cancel 338   
Cancel 339   
Cancel 340   
Cancel 341   
Cancel 342   
Cancel 343   
Cancel 344   
Cancel 345   
Cancel 346   
Cancel 347   
Cancel 348   
Cancel 349   
Cancel 350   
Cancel 351   
Cancel 352   
Cancel 353   
Cancel 354   
Cancel 355   
Cancel 356   
Cancel 357   
Cancel 358   
Cancel 359   
Cancel 360   
Cancel 361   
Cancel 362   
Cancel 363   
Cancel 364   
Cancel 365   
Cancel 366   
Cancel 367   
Cancel 368   
Cancel 369   
Cancel 370   
Cancel 371   
Cancel 372   
Cancel 373   
Cancel 374   
Cancel 375   
Cancel 376   
Cancel 377   
Cancel 378   
Cancel 379   
Cancel 380   
Cancel 381   
Cancel 382   
Cancel 383   
Cancel 384   
Cancel 385   
Cancel 386   
Cancel 387   
Cancel 388   
Cancel 389   
Cancel 390   
Cancel 391   
Cancel 392   
Cancel 393   
Cancel 394   
Cancel 395   
Cancel 396   
Cancel 397   
Cancel 398   
Cancel 399   
Cancel 400   
Cancel 401   
Cancel 402   
Cancel 403   
Cancel 404   
Cancel 405   
Cancel 406   
Cancel 407   
Cancel 408   
Cancel 409   
Cancel 410   
Cancel 411   
Cancel 412   
Cancel 413   
Cancel 414   
Cancel 415   
Cancel 416   
Cancel 417   
Cancel 418   
Cancel 419   
Cancel 420   
Cancel 421   
Cancel 422   
Cancel 423   
Cancel 424   
Cancel 425   
Cancel 426   
Cancel 427   
Cancel 428   
Cancel 429   
Cancel 430   
Cancel 431   
Cancel 432   
Cancel 433   
Cancel 434   
Cancel 435   
Cancel 436   
Cancel 437   
Cancel 438   
Cancel 439   
Cancel 440   
Cancel 441   
Cancel 442   
Cancel 443   
Cancel 444   
Cancel 445   
Cancel 446   
Cancel 447   
Cancel 448   
Cancel 449   
Cancel 450   
Cancel 451   
Cancel 452   
Cancel 453   
Cancel 454   
Cancel 455   
Cancel 456   
Cancel 457   
Cancel 458   
Cancel 459   
Cancel 460   
Cancel 461   
Cancel 462   
Cancel 463   
Cancel 464   
Cancel 465   
Cancel 466   
Cancel 467   
Cancel 468   
Cancel 469   
Cancel 470   
Cancel 471   
Cancel 472   
Cancel 473   
Cancel 474   
Cancel 475   
Cancel 476   
Cancel 477   
Cancel 478   
Cancel 479   
Cancel 480   
Cancel 481   
Cancel 482   
Cancel 483   
Cancel 484   
Cancel 485   
Cancel 486   
Cancel 487   
Cancel 488   
Cancel 489   
Cancel 490   
Cancel 491   
Cancel 492   
Cancel 493   
Cancel 494   
Cancel 495   
Cancel 496   
Cancel 497   
Cancel 498   
Cancel 499   
Cancel 500   
Cancel 501   
Cancel 502   
Cancel 503   
Cancel 504   
Cancel 505   
Cancel 506   
Cancel 507   
Cancel 508   
Cancel 509   
Cancel 510   
Cancel 511   
Cancel 512   
Cancel 513   
Cancel 514   
Cancel 515   
Cancel 516   
Cancel 517   
Cancel 518   
Cancel 519   
Cancel 520   
Cancel 521   
Cancel 522   
Cancel 523   
Cancel 524   
Cancel 525   
Cancel 526   
Cancel 527   
Cancel 528   
Cancel 529   
Cancel 530   
Cancel 531   
Cancel 532   
Cancel 533   
Cancel 534   
Cancel 535   
Cancel 536   
Cancel 537   
Cancel 538   
Cancel 539   
Cancel 540   
Cancel 541   
Cancel 542   
Cancel 543   
Cancel 544   
Cancel 545   
Cancel 546   
Cancel 547   
Cancel 548   
Cancel 549   
Cancel 550   
Cancel 551   
Cancel 552   
Cancel 553   
Cancel 554   
Cancel 555   
Cancel 556   
Cancel 557   
Cancel 558   
Cancel 559   
Cancel 560   
Cancel 561   
Cancel 562   
Cancel 563   
Cancel 564   
Cancel 565   
Cancel 566   
Cancel 567   
Cancel 568   
Cancel 569   
Cancel 570   
Cancel 571   
Cancel 572   
Cancel 573   
Cancel 574   
Cancel 575   
Cancel 576   
Cancel 577   
Cancel 578   
Cancel 579   
Cancel 580   
Cancel 581   
Cancel 582   
Cancel 583   
Cancel 584   
Cancel 585   
Cancel 586   
Cancel 587   
Cancel 588   
Cancel 589   
Cancel 590   
Cancel 591   
Cancel 592   
Cancel 593   
Cancel 594   
Cancel 595   
Cancel 596   
Cancel 597   
Cancel 598   
Cancel 599   
Cancel 600   
Cancel 601   
Cancel 602   
Cancel 603   
Cancel 604   
Cancel 605   
Cancel 606   
Cancel 607   
Cancel 608   
Cancel 609   
Cancel 610   
Cancel 611   
Cancel 612   
Cancel 613   
Cancel 614   
Cancel 615   
Cancel 616   
Cancel 617   
Cancel 618   
Cancel 619   
Cancel 620   
Cancel 621   
Cancel 622   
Cancel 623   
Cancel 624   
Cancel 625   
Cancel 626   
Cancel 627   
Cancel 628   
Cancel 629   
Cancel 630   
Cancel 631   
Cancel 632   
Cancel 633   
Cancel 634   
Cancel 635   
Cancel 636   
Cancel 637   
Cancel 638   
Cancel 639   
Cancel 640   
Cancel 641   
Cancel 642   
Cancel 643   
Cancel 644   
Cancel 645   
Cancel 646   
Cancel 647   
Cancel 648   
Cancel 649   
Cancel 650   
Cancel 651   
Cancel 652   
Cancel 653   
Cancel 654   
Cancel 655   
Cancel 656   
Cancel 657   
Cancel 658   
Cancel 659   
Cancel 660   
Cancel 661   
Cancel 662   
Cancel 663   
Cancel 664   
Cancel 665   
Cancel 666   
Cancel 667   
Cancel 668   
Cancel 669   
Cancel 670   
Cancel 671   
Cancel 672   
Cancel 673   
Cancel 674   
Cancel 675   
Cancel 676   
Cancel 677   
Cancel 678   
Cancel 679   
Cancel 680   
Cancel 681   
Cancel 682   
Cancel 683   
Cancel 684   
Cancel 685   
Cancel 686   
Cancel 687   
Cancel 688   
Cancel 689   
Cancel 690   
Cancel 691   
Cancel 692   
Cancel 693   
Cancel 694   
Cancel 695   
Cancel 696   
Cancel 697   
Cancel 698   
Cancel 699   
Cancel 700   
Cancel 701   
Cancel 702   
Cancel 703   
Cancel 704   
Cancel 705   
Cancel 706   
Cancel 707   
Cancel 708   
Cancel 709   
Cancel 710   
Cancel 711   
Cancel 712   
Cancel 713   
Cancel 714   
Cancel 715   
Cancel 716   
Cancel 717   
Cancel 718   
Cancel 719   
Cancel 720   
Cancel 721   
Cancel 722   
Cancel 723   
Cancel 724   
Cancel 725   
Cancel 726   
Cancel 727   
Cancel 728   
Cancel 729   
Cancel 730   
Cancel 731   
Cancel 732   
Cancel 733   
Cancel 734   
Cancel 735   
Cancel 736   
Cancel 737   
Cancel 738   
Cancel 739   
Cancel 740   
Cancel 741   
Cancel 742   
Cancel 743   
Cancel 744   
Cancel 745   
Cancel 746   
Cancel 747   
Cancel 748   
Cancel 749   
Cancel 750   
Cancel 751   
Cancel 752   
Cancel 753   
Cancel 754   
Cancel 755   
Cancel 756   
Cancel 757   
Cancel 758   
Cancel 759   
Cancel 760   
Cancel 761   
Cancel 762   
Cancel 763   
Cancel 764   
Cancel 765   
Cancel 766   
Cancel 767   
Cancel 768   
Cancel 769   
Cancel 770   
Cancel 771   
Cancel 772   
Cancel 773   
Cancel 774   
Cancel 775   
Cancel 776   
Cancel 777   
Cancel 778   
Cancel 779   
Cancel 780   
Cancel 781   
Cancel 782   
Cancel 783   
Cancel 784   
Cancel 785   
Cancel 786   
Cancel 787   
Cancel 788   
Cancel 789   
Cancel 790   
Cancel 791   
Cancel 792   
Cancel 793   
Cancel 794   
Cancel 795   
Cancel 796   
Cancel 797   
Cancel 798   
Cancel 799   
Cancel 800   
Cancel 801   
Cancel 802   
Cancel 803   
Cancel 804   
Cancel 805   
Cancel 806   
Cancel 807   
Cancel 808   
Cancel 809   
Cancel 810   
Cancel 811   
Cancel 812   
Cancel 813   
Cancel 814   
Cancel 815   
Cancel 816   
Cancel 817   
Cancel 818   
Cancel 819   
Cancel 820   
Cancel 821   
Cancel 822   
Cancel 823   
Cancel 824   
Cancel 825   
Cancel 826   
Cancel 827   
Cancel 828   
Cancel 829   
Cancel 830   
Cancel 831   
Cancel 832   
Cancel 833   
Cancel 834   
Cancel 835   
Cancel 836   
Cancel 837   
Cancel 838   
Cancel 839   
Cancel 840   
Cancel 841   
Cancel 842   
Cancel 843   
Cancel 844   
Cancel 845   
Cancel 846   
Cancel 847   
Cancel 848   
Cancel 849   
Cancel 850   
Cancel 851   
Cancel 852   
Cancel 853   
Cancel 854   
Cancel 855   
Cancel 856   
Cancel 857   
Cancel 858   
Cancel 859   
Cancel 860   
Cancel 861   
Cancel 862   
Cancel 863   
Cancel 864   
Cancel 865   
Cancel 866   
Cancel 867   
Cancel 868   
Cancel 869   
Cancel 870   
Cancel 871   
Cancel 872   
Cancel 873   
Cancel 874   
Cancel 875   
Cancel 876   
Cancel 877   
Cancel 878   
Cancel 879   
Cancel 880   
Cancel 881   
Cancel 882   
Cancel 883   
Cancel 884   
Cancel 885   
Cancel 886   
Cancel 887   
Cancel 888   
Cancel 889   
Cancel 890   
Cancel 891   
Cancel 892   
Cancel 893   
Cancel 894   
Cancel 895   
Cancel 896   
Cancel 897   
Cancel 898   
Cancel 899   
Cancel 900   
Cancel 901   
Cancel 902   
Cancel 903   
Cancel 904   
Cancel 905   
Cancel 906   
Cancel 907   
Cancel 908   
Cancel 909   
Cancel 910   
Cancel 911   
Cancel 912   
Cancel 913   
Cancel 914   
Cancel 915   
Cancel 916   
Cancel 917   
Cancel 918   
Cancel 919   
Cancel 920   
Cancel 921   
Cancel 922   
Cancel 923   
Cancel 924   
Cancel 925   
Cancel 926   
Cancel 927   
Cancel 928   
Cancel 929   
Cancel 930   
Cancel 931   
Cancel 932   
Cancel 933   
Cancel 934   
Cancel 935   
Cancel 936   
Cancel 937   
Cancel 938   
Cancel 939   
Cancel 940   
Cancel 941   
Cancel 942   
Cancel 943   
Cancel 944   
Cancel 945   
Cancel 946   
Cancel 947   
Cancel 948   
Cancel 949   
Cancel 950   
Cancel 951   
Cancel 952   
Cancel 953   
Cancel 954   
Cancel 955   
Cancel 956   
Cancel 957   
Cancel 958   
Cancel 959   
Cancel 960   
Cancel 961   
Cancel 962   
Cancel 963   
Cancel 964   
Cancel 965   
Cancel 966   
Cancel 967   
Cancel 968   
Cancel 969   
Cancel 970   
Cancel 971   
Cancel 972   
Cancel 973   
Cancel 974   
Cancel 975   
Cancel 976   
Cancel 977   
Cancel 978   
Cancel 979   
Cancel 980   
Cancel 981   
Cancel 982   
Cancel 983   
Cancel 984   
Cancel 985   
Cancel 986   
Cancel 987   
Cancel 988   
Cancel 989   
Cancel 990   
Cancel 991   
Cancel 992   
Cancel 993   
Cancel 994   
Cancel 995   
Cancel 996   
Cancel 997   
Cancel 998   
Cancel 999   
Cancel 1000   
Cancel 1001   
Cancel 1002   
Cancel 1003   
Cancel 1004   
Cancel 1005   
Cancel 1006   
Cancel 1007   
Cancel 1008   
Cancel 1009   
Cancel 1010   
Cancel 1011   
Cancel 1012   
Cancel 1013   
Cancel 1014   
Cancel 1015   
Cancel 1016   
Cancel 1017   
Cancel 1018   
Cancel 1019   
Cancel 1020   
Cancel 1021   
Cancel 1022   
Cancel 1023   
Cancel 1024   
Cancel 1025   
Cancel 1026   
Cancel 1027   
Cancel 1028   
Cancel 1029   
Cancel 1030   
Cancel 1031   
Cancel 1032   
Cancel 1033   
Cancel 1034   
Cancel 1035   
Cancel 1036   
Cancel 1037   
Cancel 1038   
Cancel 1039   
Cancel 1040   
Cancel 1041   
Cancel 1042   
Cancel 1043   
Cancel 1044   
Cancel 1045   
Cancel 1046   
Cancel 1047   
Cancel 1048   
Cancel 1049   
Cancel 1050   
Cancel 1051   
Cancel 1052   
Cancel 1053   
Cancel 1054   
Cancel 1055   
Cancel 1056   
Cancel 1057   
Cancel 1058   
Cancel 1059   
Cancel 1060   
Cancel 1061   
Cancel 1062   
Cancel 1063   
Cancel 1064   
Cancel 1065   
Cancel 1066   
Cancel 1067   
Cancel 1068   
Cancel 1069   
Cancel 1070   
Cancel 1071   
Cancel 1072   
Cancel 1073   
Cancel 1074   
Cancel 1075   
Cancel 1076   
Cancel 1077   
Cancel 1078   
Cancel 1079   
Cancel 1080   
Cancel 1081   
Cancel 1082   
Cancel 1083   
Cancel 1084   
Cancel 1085   
Cancel 1086   
Cancel 1087   
Cancel 1088   
Cancel 1089   
Cancel 1090   
Cancel 1091   
Cancel 1092   
Cancel 1093   
Cancel 1094   
Print Surfers