Booking 0 Surfers 101 102 103 
Booking 1 Surfers 101 102 103 
Booking 2 Surfers 101 102 103 
Booking 3 Surfers 101 102 103 
Booking 4 Surfers 101 102 103 
Booking 5 Surfers 101 102 103 
Booking 6 Surfers 101 102 103 
Booking 7 Surfers 101 102 103 
Booking 8 Surfers 101 102 103 
Booking 9 Surfers 101 102 103 
Booking 10 Surfers 101 102 103 
Booking 11 Surfers 101 102 103 
Booking 12 Surfers 101 102 103 
Booking 13 Surfers 101 102 103 
Booking 14 Surfers 101 102 103 
Booking 15 Surfers 101 102 103 
Booking 16 Surfers 101 102 103 
Booking 17 Surfers 101 102 103 
Booking 18 Surfers 101 102 103 
Booking 19 Surfers 101 102 103 
Booking 20 Surfers 101 102 103 
Booking 21 Surfers 101 102 103 
Booking 22 Surfers 101 102 103 
Booking 23 Surfers 101 102 103 
Booking 24 Surfers 101 102 103 
Booking 25 Surfers 101 102 103 
Booking 26 Surfers 101 102 103 
Booking 27 Surfers 101 102 103 
Booking 28 Surfers 101 102 103 
Booking 29 Surfers 101 102 103 
Booking 30 Surfers 101 102 103 
Booking 31 Surfers 101 102 103 
Booking 32 Surfers 101 102 103 
Booking 33 Surfers 101 102 103 
Booking 34 Surfers 101 102 103 
Booking 35 Surfers 101 102 103 
Booking 36 Surfers 101 102 103 
Booking 37 Surfers 101 102 103 
Booking 38 Surfers 101 102 103 
Booking 39 Surfers 101 102 103 
Booking 40 Surfers 101 102 103 
Booking 41 Surfers 101 102 103 
Booking 42 Surfers 101 102 103 
Booking 43 Surfers 101 102 103 
Booking 44 Surfers 101 102 103 
Booking 45 Surfers 101 102 103 
Booking 46 Surfers 101 102 103 
Booking 47 Surfers 101 102 103 
Booking 48 Surfers 101 102 103 
Booking 49 Surfers 101 102 103 
Booking 50 Surfers 101 102 103 
Booking 51 Surfers 101 102 103 
Booking 52 Surfers 101 102 103 
Booking 53 Surfers 101 102 103 
Booking 54 Surfers 101 102 103 
Booking 55 Surfers 101 102 103 
Booking 56 Surfers 101 102 103 
Booking 57 Surfers 101 102 103 
Booking 58 Surfers 101 102 103 
Booking 59 Surfers 101 102 103 
Booking 60 Surfers 101 102 103 
Booking 61 Surfers 101 102 103 
Booking 62 Surfers 101 102 103 
Booking 63 Surfers 101 102 103 
Booking 64 Surfers 101 102 103 
Booking 65 Surfers 101 102 103 
Booking 66 Surfers 101 102 103 
Booking 67 Surfers 101 102 103 
Booking 68 Surfers 101 102 103 
Booking 69 Surfers 101 102 103 
Booking 70 Surfers 101 102 103 
Booking 71 Surfers 101 102 103 
Booking 72 Surfers 101 102 103 
Booking 73 Surfers 101 102 103 
Booking 74 Surfers 101 102 103 
Booking 75 Surfers 101 102 103 
Booking 76 Surfers 101 102 103 
Booking 77 Surfers 101 102 103 
Booking 78 Surfers 101 102 103 
Booking 79 Surfers 101 102 103 
Booking 80 Surfers 101 102 103 
Booking 81 Surfers 101 102 103 
Booking 82 Surfers 101 102 103 
Booking 83 Surfers 101 102 103 
Booking 84 Surfers 101 102 103 
Booking 85 Surfers 101 102 103 
Booking 86 Surfers 101 102 103 
Booking 87 Surfers 101 102 103 
Booking 88 Surfers 101 102 103 
Booking 89 Surfers 101 102 103 
Booking 90 Surfers 101 102 103 
Booking 91 Surfers 101 102 103 
Booking 92 Surfers 101 102 103 
Booking 93 Surfers 101 102 103 
Booking 94 Surfers 101 102 103 
Booking 95 Surfers 101 102 103 
Booking 96 Surfers 101 102 103 
Booking 97 Surfers 101 102 103 
Booking 98 Surfers 101 102 103 
Booking 99 Surfers 101 102 103 
Booking 100 Surfers 101 102 103 
Booking 101 Surfers 101 102 103 
Booking 102 Surfers 101 102 103 
Booking 103 Surfers 101 102 103 
Booking 104 Surfers 101 102 103 
Booking 105 Surfers 101 102 103 
Booking 106 Surfers 101 102 103 
Booking 107 Surfers 101 102 103 
Booking 108 Surfers 101 102 103 
Booking 109 Surfers 101 102 103 
Booking 110 Surfers 101 102 103 
Booking 111 Surfers 101 102 103 
Booking 112 Surfers 101 102 103 
Booking 113 Surfers 101 102 103 
Booking 114 Surfers 101 102 103 
Booking 115 Surfers 101 102 103 
Booking 116 Surfers 101 102 103 
Booking 117 Surfers 101 102 103 
Booking 118 Surfers 101 102 103 
Booking 119 Surfers 101 102 103 
Booking 120 Surfers 101 102 103 
Booking 121 Surfers 101 102 103 
Booking 122 Surfers 101 102 103 
Booking 123 Surfers 101 102 103 
Booking 124 Surfers 101 102 103 
Booking 125 Surfers 101 102 103 
Booking 126 Surfers 101 102 103 
Booking 127 Surfers 101 102 103 
Booking 128 Surfers 101 102 103 
Booking 129 Surfers 101 102 103 
Booking 130 Surfers 101 102 103 
Booking 131 Surfers 101 102 103 
Booking 132 Surfers 101 102 103 
Booking 133 Surfers 101 102 103 
Booking 134 Surfers 101 102 103 
Booking 135 Surfers 101 102 103 
Booking 136 Surfers 101 102 103 
Booking 137 Surfers 101 102 103 
Booking 138 Surfers 101 102 103 
Booking 139 Surfers 101 102 103 
Booking 140 Surfers 101 102 103 
Booking 141 Surfers 101 102 103 
Booking 142 Surfers 101 102 103 
Booking 143 Surfers 101 102 103 
Booking 144 Surfers 101 102 103 
Booking 145 Surfers 101 102 103 
Booking 146 Surfers 101 102 103 
Booking 147 Surfers 101 102 103 
Booking 148 Surfers 101 102 103 
Booking 149 Surfers 101 102 103 
Booking 150 Surfers 101 102 103 
Booking 151 Surfers 101 102 103 
Booking 152 Surfers 101 102 103 
Booking 153 Surfers 101 102 103 
Booking 154 Surfers 101 102 103 
Booking 155 Surfers 101 102 103 
Booking 156 Surfers 101 102 103 
Booking 157 Surfers 101 102 103 
Booking 158 Surfers 101 102 103 
Booking 159 Surfers 101 102 103 
Booking 160 Surfers 101 102 103 
Booking 161 Surfers 101 102 103 
Booking 162 Surfers 101 102 103 
Booking 163 Surfers 101 102 103 
Booking 164 Surfers 101 102 103 
Booking 165 Surfers 101 102 103 
Booking 166 Surfers 101 102 103 
Booking 167 Surfers 101 102 103 
Booking 168 Surfers 101 102 103 
Booking 169 Surfers 101 102 103 
Booking 170 Surfers 101 102 103 
Booking 171 Surfers 101 102 103 
Booking 172 Surfers 101 102 103 
Booking 173 Surfers 101 102 103 
Booking 174 Surfers 101 102 103 
Booking 175 Surfers 101 102 103 
Booking 176 Surfers 101 102 103 
Booking 177 Surfers 101 102 103 
Booking 178 Surfers 101 102 103 
Booking 179 Surfers 101 102 103 
Booking 180 Surfers 101 102 103 
Booking 181 Surfers 101 102 103 
Booking 182 Surfers 101 102 103 
Booking 183 Surfers 101 102 103 
Booking 184 Surfers 101 102 103 
Booking 185 Surfers 101 102 103 
Booking 186 Surfers 101 102 103 
Booking 187 Surfers 101 102 103 
Booking 188 Surfers 101 102 103 
Booking 189 Surfers 101 102 103 
Booking 190 Surfers 101 102 103 
Booking 191 Surfers 101 102 103 
Booking 192 Surfers 101 102 103 
Booking 193 Surfers 101 102 103 
Booking 194 Surfers 101 102 103 
Booking 195 Surfers 101 102 103 
Booking 196 Surfers 101 102 103 
Booking 197 Surfers 101 102 103 
Booking 198 Surfers 101 102 103 
Booking 199 Surfers 101 102 103 
Booking 200 Surfers 101 102 103 
Booking 201 Surfers 101 102 103 
Booking 202 Surfers 101 102 103 
Booking 203 Surfers 101 102 103 
Booking 204 Surfers 101 102 103 
Booking 205 Surfers 101 102 103 
Booking 206 Surfers 101 102 103 
Booking 207 Surfers 101 102 103 
Booking 208 Surfers 101 102 103 
Booking 209 Surfers 101 102 103 
Booking 210 Surfers 101 102 103 
Booking 211 Surfers 101 102 103 
Booking 212 Surfers 101 102 103 
Booking 213 Surfers 101 102 103 
Booking 214 Surfers 101 102 103 
Booking 215 Surfers 101 102 103 
Booking 216 Surfers 101 102 103 
Booking 217 Surfers 101 102 103 
Booking 218 Surfers 101 102 103 
Booking 219 Surfers 101 102 103 
Booking 220 Surfers 101 102 103 
Booking 221 Surfers 101 102 103 
Booking 222 Surfers 101 102 103 
Booking 223 Surfers 101 102 103 
Booking 224 Surfers 101 102 103 
Booking 225 Surfers 101 102 103 
Booking 226 Surfers 101 102 103 
Booking 227 Surfers 101 102 103 
Booking 228 Surfers 101 102 103 
Booking 229 Surfers 101 102 103 
Booking 230 Surfers 101 102 103 
Booking 231 Surfers 101 102 103 
Booking 232 Surfers 101 102 103 
Booking 233 Surfers 101 102 103 
Booking 234 Surfers 101 102 103 
Booking 235 Surfers 101 102 103 
Booking 236 Surfers 101 102 103 
Booking 237 Surfers 101 102 103 
Booking 238 Surfers 101 102 103 
Booking 239 Surfers 101 102 103 
Booking 240 Surfers 101 102 103 
Booking 241 Surfers 101 102 103 
Booking 242 Surfers 101 102 103 
Booking 243 Surfers 101 102 103 
Booking 244 Surfers 101 102 103 
Booking 245 Surfers 101 102 103 
Booking 246 Surfers 101 102 103 
Booking 247 Surfers 101 102 103 
Booking 248 Surfers 101 102 103 
Booking 249 Surfers 101 102 103 
Booking 250 Surfers 101 102 103 
Booking 251 Surfers 101 102 103 
Booking 252 Surfers 101 102 103 
Booking 253 Surfers 101 102 103 
Booking 254 Surfers 101 102 103 
Booking 255 Surfers 101 102 103 
Booking 256 Surfers 101 102 103 
Booking 257 Surfers 101 102 103 
Booking 258 Surfers 101 102 103 
Booking 259 Surfers 101 102 103 
Booking 260 Surfers 101 102 103 
Booking 261 Surfers 101 102 103 
Booking 262 Surfers 101 102 103 
Booking 263 Surfers 101 102 103 
Booking 264 Surfers 101 102 103 
Booking 265 Surfers 101 102 103 
Booking 266 Surfers 101 102 103 
Booking 267 Surfers 101 102 103 
Booking 268 Surfers 101 102 103 
Booking 269 Surfers 101 102 103 
Booking 270 Surfers 101 102 103 
Booking 271 Surfers 101 102 103 
Booking 272 Surfers 101 102 103 
Booking 273 Surfers 101 102 103 
Booking 274 Surfers 101 102 103 
Booking 275 Surfers 101 102 103 
Booking 276 Surfers 101 102 103 
Booking 277 Surfers 101 102 103 
Booking 278 Surfers 101 102 103 
Booking 279 Surfers 101 102 103 
Booking 280 Surfers 101 102 103 
Booking 281 Surfers 101 102 103 
Booking 282 Surfers 101 102 103 
Booking 283 Surfers 101 102 103 
Booking 284 Surfers 101 102 103 
Booking 285 Surfers 101 102 103 
Booking 286 Surfers 101 102 103 
Booking 287 Surfers 101 102 103 
Booking 288 Surfers 101 102 103 
Booking 289 Surfers 101 102 103 
Booking 290 Surfers 101 102 103 
Booking 291 Surfers 101 102 103 
Booking 292 Surfers 101 102 103 
Booking 293 Surfers 101 102 103 
Booking 294 Surfers 101 102 103 
Booking 295 Surfers 101 102 103 
Booking 296 Surfers 101 102 103 
Booking 297 Surfers 101 102 103 
Booking 298 Surfers 101 102 103 
Booking 299 Surfers 101 102 103 
Booking 300 Surfers 101 102 103 
Booking 301 Surfers 101 102 103 
Booking 302 Surfers 101 102 103 
Booking 303 Surfers 101 102 103 
Booking 304 Surfers 101 102 103 
Booking 305 Surfers 101 102 103 
Booking 306 Surfers 101 102 103 
Booking 307 Surfers 101 102 103 
Booking 308 Surfers 101 102 103 
Booking 309 Surfers 101 102 103 
Booking 310 Surfers 101 102 103 
Booking 311 Surfers 101 102 103 
Booking 312 Surfers 101 102 103 
Booking 313 Surfers 101 102 103 
Booking 314 Surfers 101 102 103 
Booking 315 Surfers 101 102 103 
Booking 316 Surfers 101 102 103 
Booking 317 Surfers 101 102 103 
Booking 318 Surfers 101 102 103 
Booking 319 Surfers 101 102 103 
Booking 320 Surfers 101 102 103 
Booking 321 Surfers 101 102 103 
Booking 322 Surfers 101 102 103 
Booking 323 Surfers 101 102 103 
Booking 324 Surfers 101 102 103 
Booking 325 Surfers 101 102 103 
Booking 326 Surfers 101 102 103 
Booking 327 Surfers 101 102 103 
Booking 328 Surfers 101 102 103 
Booking 329 Surfers 101 102 103 
Booking 330 Surfers 101 102 103 
Booking 331 Surfers 101 102 103 
Booking 332 Surfers 101 102 103 
Booking 333 Surfers 101 102 103 
Booking 334 Surfers 101 102 103 
Booking 335 Surfers 101 102 103 
Booking 336 Surfers 101 102 103 
Booking 337 Surfers 101 102 103 
Booking 338 Surfers 101 102 103 
Booking 339 Surfers 101 102 103 
Booking 340 Surfers 101 102 103 
Booking 341 Surfers 101 102 103 
Booking 342 Surfers 101 102 103 
Booking 343 Surfers 101 102 103 
Booking 344 Surfers 101 102 103 
Booking 345 Surfers 101 102 103 
Booking 346 Surfers 101 102 103 
Booking 347 Surfers 101 102 103 
Booking 348 Surfers 101 102 103 
Booking 349 Surfers 101 102 103 
Booking 350 Surfers 101 102 103 
Booking 351 Surfers 101 102 103 
Booking 352 Surfers 101 102 103 
Booking 353 Surfers 101 102 103 
Booking 354 Surfers 101 102 103 
Booking 355 Surfers 101 102 103 
Booking 356 Surfers 101 102 103 
Booking 357 Surfers 101 102 103 
Booking 358 Surfers 101 102 103 
Booking 359 Surfers 101 102 103 
Booking 360 Surfers 101 102 103 
Booking 361 Surfers 101 102 103 
Booking 362 Surfers 101 102 103 
Booking 363 Surfers 101 102 103 
Booking 364 Surfers 101 102 103 
Cancel 0
Cancel 1
Cancel 2
Cancel 3
Cancel 4
Cancel 5
Cancel 6
Cancel 7
Cancel 8
Cancel 9
Cancel 10
Cancel 11
Cancel 12
Cancel 13
Cancel 14
Cancel 15
Cancel 16
Cancel 17
Cancel 18
Cancel 19
Cancel 20
Cancel 21
Cancel 22
Cancel 23
Cancel 24
Cancel 25
Cancel 26
Cancel 27
Cancel 28
Cancel 29
Cancel 30
Cancel 31
Cancel 32
Cancel 33
Cancel 34
Cancel 35
Cancel 36
Cancel 37
Cancel 38
Cancel 39
Cancel 40
Cancel 41
Cancel 42
Cancel 43
Cancel 44
Cancel 45
Cancel 46
Cancel 47
Cancel 48
Cancel 49
Cancel 50
Cancel 51
Cancel 52
Cancel 53
Cancel 54
Cancel 55
Cancel 56
Cancel 57
Cancel 58
Cancel 59
Cancel 60
Cancel 61
Cancel 62
Cancel 63
Cancel 64
Cancel 65
Cancel 66
Cancel 67
Cancel 68
Cancel 69
Cancel 70
Cancel 71
Cancel 72
Cancel 73
Cancel 74
Cancel 75
Cancel 76
Cancel 77
Cancel 78
Cancel 79
Cancel 80
Cancel 81
Cancel 82
Cancel 83
Cancel 84
Cancel 85
Cancel 86
Cancel 87
Cancel 88
Cancel 89
Cancel 90
Cancel 91
Cancel 92
Cancel 93
Cancel 94
Cancel 95
Cancel 96
Cancel 97
Cancel 98
Cancel 99
Cancel 100
Cancel 101
Cancel 102
Cancel 103
Cancel 104
Cancel 105
Cancel 106
Cancel 107
Cancel 108
Cancel 109
Cancel 110
Cancel 111
Cancel 112
Cancel 113
Cancel 114
Cancel 115
Cancel 116
Cancel 117
Cancel 118
Cancel 119
Cancel 120
Cancel 121
Cancel 122
Cancel 123
Cancel 124
Cancel 125
Cancel 126
Cancel 127
Cancel 128
Cancel 129
Cancel 130
Cancel 131
Cancel 132
Cancel 133
Cancel 134
Cancel 135
Cancel 136
Cancel 137
Cancel 138
Cancel 139
Cancel 140
Cancel 141
Cancel 142
Cancel 143
Cancel 144
Cancel 145
Cancel 146
Cancel 147
Cancel 148
Cancel 149
Cancel 150
Cancel 151
Cancel 152
Cancel 153
Cancel 154
Cancel 155
Cancel 156
Cancel 157
Cancel 158
Cancel 159
Cancel 160
Cancel 161
Cancel 162
Cancel 163
Cancel 164
Cancel 165
Cancel 166
Cancel 167
Cancel 168
Cancel 169
Cancel 170
Cancel 171
Cancel 172
Cancel 173
Cancel 174
Cancel 175
Cancel 176
Cancel 177
Cancel 178
Cancel 179
Cancel 180
Cancel 181
Cancel 182
Cancel 183
Cancel 184
Cancel 185
Cancel 186
Cancel 187
Cancel 188
Cancel 189
Cancel 190
Cancel 191
Cancel 192
Cancel 193
Cancel 194
Cancel 195
Cancel 196
Cancel 197
Cancel 198
Cancel 199
Cancel 200
Cancel 201
Cancel 202
Cancel 203
Cancel 204
Cancel 205
Cancel 206
Cancel 207
Cancel 208
Cancel 209
Cancel 210
Cancel 211
Cancel 212
Cancel 213
Cancel 214
Cancel 215
Cancel 216
Cancel 217
Cancel 218
Cancel 219
Cancel 220
Cancel 221
Cancel 222
Cancel 223
Cancel 224
Cancel 225
Cancel 226
Cancel 227
Cancel 228
Cancel 229
Cancel 230
Cancel 231
Cancel 232
Cancel 233
Cancel 234
Cancel 235
Cancel 236
Cancel 237
Cancel 238
Cancel 239
Cancel 240
Cancel 241
Cancel 242
Cancel 243
Cancel 244
Cancel 245
Cancel 246
Cancel 247
Cancel 248
Cancel 249
Cancel 250
Cancel 251
Cancel 252
Cancel 253
Cancel 254
Cancel 255
Cancel 256
Cancel 257
Cancel 258
Cancel 259
Cancel 260
Cancel 261
Cancel 262
Cancel 263
Cancel 264
Cancel 265
Cancel 266
Cancel 267
Cancel 268
Cancel 269
Cancel 270
Cancel 271
Cancel 272
Cancel 273
Cancel 274
Cancel 275
Cancel 276
Cancel 277
Cancel 278
Cancel 279
Cancel 280
Cancel 281
Cancel 282
Cancel 283
Cancel 284
Cancel 285
Cancel 286
Cancel 287
Cancel 288
Cancel 289
Cancel 290
Cancel 291
Cancel 292
Cancel 293
Cancel 294
Cancel 295
Cancel 296
Cancel 297
Cancel 298
Cancel 299
Cancel 300
Cancel 301
Cancel 302
Cancel 303
Cancel 304
Cancel 305
Cancel 306
Cancel 307
Cancel 308
Cancel 309
Cancel 310
Cancel 311
Cancel 312
Cancel 313
Cancel 314
Cancel 315
Cancel 316
Cancel 317
Cancel 318
Cancel 319
Cancel 320
Cancel 321
Cancel 322
Cancel 323
Cancel 324
Cancel 325
Cancel 326
Cancel 327
Cancel 328
Cancel 329
Cancel 330
Cancel 331
Cancel 332
Cancel 333
Cancel 334
Cancel 335
Cancel 336
Cancel 337
Cancel 338
Cancel 339
Cancel 340
Cancel 341
Cancel 342
Cancel 343
Cancel 344
Cancel 345
Cancel 346
Cancel 347
Cancel 348
Cancel 349
Cancel 350
Cancel 351
Cancel 352
Cancel 353
Cancel 354
Cancel 355
Cancel 356
Cancel 357
Cancel 358
Cancel 359
Cancel 360
Cancel 361
Cancel 362
Cancel 363
Cancel 364
Booking 112 Surfers 101 102 103 
Booking 84 Surfers 101 102 103 
Booking 298 Surfers 101 102 103 
Booking 232 Surfers 101 102 103 
Booking 199 Surfers 101 102 103 
Booking 247 Surfers 101 102 103 
Booking 45 Surfers 101 102 103 
Booking 236 Surfers 101 102 103 
Booking 164 Surfers 101 102 103 
Booking 193 Surfers 101 102 103 
Booking 198 Surfers 101 102 103 
Booking 271 Surfers 101 102 103 
Booking 188 Surfers 101 102 103 
Booking 192 Surfers 101 102 103 
Booking 70 Surfers 101 102 103 
Booking 181 Surfers 101 102 103 
Booking 0 Surfers 101 102 103 
Booking 330 Surfers 101 102 103 
Booking 320 Surfers 101 102 103 
Booking 275 Surfers 101 102 103 
Booking 57 Surfers 101 102 103 
Booking 344 Surfers 101 102 103 
Booking 255 Surfers 101 102 103 
Booking 157 Surfers 101 102 103 
Booking 352 Surfers 101 102 103 
Booking 173 Surfers 101 102 103 
Booking 240 Surfers 101 102 103 
Booking 248 Surfers 101 102 103 
Booking 360 Surfers 101 102 103 
Booking 122 Surfers 101 102 103 
Booking 343 Surfers 101 102 103 
Booking 244 Surfers 101 102 103 
Booking 301 Surfers 101 102 103 
Booking 337 Surfers 101 102 103 
Booking 245 Surfers 101 102 103 
Booking 303 Surfers 101 102 103 
Booking 77 Surfers 101 102 103 
Booking 64 Surfers 101 102 103 
Booking 53 Surfers 101 102 103 
Booking 227 Surfers 101 102 103 
Booking 4 Surfers 101 102 103 
Booking 37 Surfers 101 102 103 
Booking 76 Surfers 101 102 103 
Booking 165 Surfers 101 102 103 
Booking 213 Surfers 101 102 103 
Booking 327 Surfers 101 102 103 
Booking 241 Surfers 101 102 103 
Booking 14 Surfers 101 102 103 
Booking 228 Surfers 101 102 103 
Booking 197 Surfers 101 102 103 
Booking 204 Surfers 101 102 103 
Booking 149 Surfers 101 102 103 
Booking 224 Surfers 101 102 103 
Booking 201 Surfers 101 102 103 
Booking 97 Surfers 101 102 103 
Booking 30 Surfers 101 102 103 
Booking 20 Surfers 101 102 103 
Booking 100 Surfers 101 102 103 
Booking 243 Surfers 101 102 103 
Booking 19 Surfers 101 102 103 
Booking 220 Surfers 101 102 103 
Booking 147 Surfers 101 102 103 
Booking 196 Surfers 101 102 103 
Booking 98 Surfers 101 102 103 
Booking 124 Surfers 101 102 103 
Booking 182 Surfers 101 102 103 
Booking 359 Surfers 101 102 103 
Booking 325 Surfers 101 102 103 
Booking 293 Surfers 101 102 103 
Booking 234 Surfers 101 102 103 
Booking 215 Surfers 101 102 103 
Booking 251 Surfers 101 102 103 
Booking 105 Surfers 101 102 103 
Booking 134 Surfers 101 102 103 
Booking 175 Surfers 101 102 103 
Booking 353 Surfers 101 102 103 
Booking 162 Surfers 101 102 103 
Booking 139 Surfers 101 102 103 
Booking 292 Surfers 101 102 103 
Booking 133 Surfers 101 102 103 
Booking 364 Surfers 101 102 103 
Booking 102 Surfers 101 102 103 
Booking 265 Surfers 101 102 103 
Booking 310 Surfers 101 102 103 
Booking 194 Surfers 101 102 103 
Booking 185 Surfers 101 102 103 
Booking 115 Surfers 101 102 103 
Booking 42 Surfers 101 102 103 
Booking 223 Surfers 101 102 103 
Booking 54 Surfers 101 102 103 
Booking 161 Surfers 101 102 103 
Booking 207 Surfers 101 102 103 
Booking 258 Surfers 101 102 103 
Booking 119 Surfers 101 102 103 
Booking 153 Surfers 101 102 103 
Booking 226 Surfers 101 102 103 
Booking 339 Surfers 101 102 103 
Booking 295 Surfers 101 102 103 
Booking 355 Surfers 101 102 103 
Booking 266 Surfers 101 102 103 
Booking 49 Surfers 101 102 103 
Booking 250 Surfers 101 102 103 
Booking 285 Surfers 101 102 103 
Booking 238 Surfers 101 102 103 
Booking 138 Surfers 101 102 103 
Booking 71 Surfers 101 102 103 
Booking 225 Surfers 101 102 103 
Booking 113 Surfers 101 102 103 
Booking 347 Surfers 101 102 103 
Booking 43 Surfers 101 102 103 
Booking 90 Surfers 101 102 103 
Booking 183 Surfers 101 102 103 
Booking 128 Surfers 101 102 103 
Booking 305 Surfers 101 102 103 
Booking 184 Surfers 101 102 103 
Booking 94 Surfers 101 102 103 
Booking 145 Surfers 101 102 103 
Booking 96 Surfers 101 102 103 
Booking 169 Surfers 101 102 103 
Booking 276 Surfers 101 102 103 
Booking 202 Surfers 101 102 103 
Booking 272 Surfers 101 102 103 
Booking 346 Surfers 101 102 103 
Booking 167 Surfers 101 102 103 
Booking 81 Surfers 101 102 103 
Booking 210 Surfers 101 102 103 
Booking 156 Surfers 101 102 103 
Booking 110 Surfers 101 102 103 
Booking 334 Surfers 101 102 103 
Booking 307 Surfers 101 102 103 
Booking 208 Surfers 101 102 103 
Booking 83 Surfers 101 102 103 
Booking 131 Surfers 101 102 103 
Booking 7 Surfers 101 102 103 
Booking 65 Surfers 101 102 103 
Booking 174 Surfers 101 102 103 
Booking 85 Surfers 101 102 103 
Booking 35 Surfers 101 102 103 
Booking 349 Surfers 101 102 103 
Booking 239 Surfers 101 102 103 
Booking 264 Surfers 101 102 103 
Booking 284 Surfers 101 102 103 
Booking 50 Surfers 101 102 103 
Booking 33 Surfers 101 102 103 
Booking 350 Surfers 101 102 103 
Booking 130 Surfers 101 102 103 
Booking 51 Surfers 101 102 103 
Booking 176 Surfers 101 102 103 
Booking 315 Surfers 101 102 103 
Booking 296 Surfers 101 102 103 
Booking 242 Surfers 101 102 103 
Booking 186 Surfers 101 102 103 
Booking 218 Surfers 101 102 103 
Booking 120 Surfers 101 102 103 
Booking 308 Surfers 101 102 103 
Booking 140 Surfers 101 102 103 
Booking 3 Surfers 101 102 103 
Booking 318 Surfers 101 102 103 
Booking 361 Surfers 101 102 103 
Booking 72 Surfers 101 102 103 
Booking 362 Surfers 101 102 103 
Booking 278 Surfers 101 102 103 
Booking 27 Surfers 101 102 103 
Booking 2 Surfers 101 102 103 
Booking 312 Surfers 101 102 103 
Booking 288 Surfers 101 102 103 
Booking 304 Surfers 101 102 103 
Booking 158 Surfers 101 102 103 
Booking 322 Surfers 101 102 103 
Booking 89 Surfers 101 102 103 
Booking 230 Surfers 101 102 103 
Booking 281 Surfers 101 102 103 
Booking 129 Surfers 101 102 103 
Booking 132 Surfers 101 102 103 
Booking 253 Surfers 101 102 103 
Booking 170 Surfers 101 102 103 
Booking 163 Surfers 101 102 103 
Booking 340 Surfers 101 102 103 
Booking 99 Surfers 101 102 103 
Booking 274 Surfers 101 102 103 
Booking 209 Surfers 101 102 103 
Booking 154 Surfers 101 102 103 
Booking 289 Surfers 101 102 103 
Booking 323 Surfers 101 102 103 
Booking 333 Surfers 101 102 103 
Booking 273 Surfers 101 102 103 
Booking 8 Surfers 101 102 103 
Booking 142 Surfers 101 102 103 
Booking 1 Surfers 101 102 103 
Booking 246 Surfers 101 102 103 
Booking 309 Surfers 101 102 103 
Booking 190 Surfers 101 102 103 
Booking 137 Surfers 101 102 103 
Booking 282 Surfers 101 102 103 
Booking 62 Surfers 101 102 103 
Booking 87 Surfers 101 102 103 
Booking 152 Surfers 101 102 103 
Booking 111 Surfers 101 102 103 
Booking 23 Surfers 101 102 103 
Booking 290 Surfers 101 102 103 
Booking 86 Surfers 101 102 103 
Booking 314 Surfers 101 102 103 
Booking 146 Surfers 101 102 103 
Booking 73 Surfers 101 102 103 
Booking 55 Surfers 101 102 103 
Booking 252 Surfers 101 102 103 
Booking 328 Surfers 101 102 103 
Booking 214 Surfers 101 102 103 
Booking 136 Surfers 101 102 103 
Booking 88 Surfers 101 102 103 
Booking 357 Surfers 101 102 103 
Booking 217 Surfers 101 102 103 
Booking 180 Surfers 101 102 103 
Booking 259 Surfers 101 102 103 
Booking 159 Surfers 101 102 103 
Booking 338 Surfers 101 102 103 
Booking 17 Surfers 101 102 103 
Booking 103 Surfers 101 102 103 
Booking 106 Surfers 101 102 103 
Booking 114 Surfers 101 102 103 
Booking 93 Surfers 101 102 103 
Booking 41 Surfers 101 102 103 
Booking 321 Surfers 101 102 103 
Booking 21 Surfers 101 102 103 
Booking 38 Surfers 101 102 103 
Booking 286 Surfers 101 102 103 
Booking 229 Surfers 101 102 103 
Booking 306 Surfers 101 102 103 
Booking 74 Surfers 101 102 103 
Booking 348 Surfers 101 102 103 
Booking 317 Surfers 101 102 103 
Booking 336 Surfers 101 102 103 
Booking 200 Surfers 101 102 103 
Booking 141 Surfers 101 102 103 
Booking 148 Surfers 101 102 103 
Booking 270 Surfers 101 102 103 
Booking 36 Surfers 101 102 103 
Booking 179 Surfers 101 102 103 
Booking 257 Surfers 101 102 103 
Booking 13 Surfers 101 102 103 
Booking 34 Surfers 101 102 103 
Booking 95 Surfers 101 102 103 
Booking 104 Surfers 101 102 103 
Booking 31 Surfers 101 102 103 
Booking 92 Surfers 101 102 103 
Booking 25 Surfers 101 102 103 
Booking 267 Surfers 101 102 103 
Booking 358 Surfers 101 102 103 
Booking 67 Surfers 101 102 103 
Booking 63 Surfers 101 102 103 
Booking 127 Surfers 101 102 103 
Booking 342 Surfers 101 102 103 
Booking 108 Surfers 101 102 103 
Booking 351 Surfers 101 102 103 
Booking 268 Surfers 101 102 103 
Booking 166 Surfers 101 102 103 
Booking 313 Surfers 101 102 103 
Booking 79 Surfers 101 102 103 
Booking 212 Surfers 101 102 103 
Booking 354 Surfers 101 102 103 
Booking 363 Surfers 101 102 103 
Booking 205 Surfers 101 102 103 
Booking 78 Surfers 101 102 103 
Booking 216 Surfers 101 102 103 
Booking 29 Surfers 101 102 103 
Booking 47 Surfers 101 102 103 
Booking 302 Surfers 101 102 103 
Booking 75 Surfers 101 102 103 
Booking 60 Surfers 101 102 103 
Booking 191 Surfers 101 102 103 
Booking 177 Surfers 101 102 103 
Booking 329 Surfers 101 102 103 
Booking 172 Surfers 101 102 103 
Booking 233 Surfers 101 102 103 
Booking 56 Surfers 101 102 103 
Booking 82 Surfers 101 102 103 
Booking 107 Surfers 101 102 103 
Booking 117 Surfers 101 102 103 
Booking 222 Surfers 101 102 103 
Booking 335 Surfers 101 102 103 
Booking 291 Surfers 101 102 103 
Booking 300 Surfers 101 102 103 
Booking 121 Surfers 101 102 103 
Booking 126 Surfers 101 102 103 
Booking 331 Surfers 101 102 103 
Booking 9 Surfers 101 102 103 
Booking 326 Surfers 101 102 103 
Booking 311 Surfers 101 102 103 
Booking 116 Surfers 101 102 103 
Booking 58 Surfers 101 102 103 
Booking 237 Surfers 101 102 103 
Booking 80 Surfers 101 102 103 
Booking 263 Surfers 101 102 103 
Booking 211 Surfers 101 102 103 
Booking 287 Surfers 101 102 103 
Booking 297 Surfers 101 102 103 
Booking 235 Surfers 101 102 103 
Booking 135 Surfers 101 102 103 
Booking 16 Surfers 101 102 103 
Booking 277 Surfers 101 102 103 
Booking 316 Surfers 101 102 103 
Booking 249 Surfers 101 102 103 
Booking 151 Surfers 101 102 103 
Booking 279 Surfers 101 102 103 
Booking 144 Surfers 101 102 103 
Booking 6 Surfers 101 102 103 
Booking 280 Surfers 101 102 103 
Booking 91 Surfers 101 102 103 
Booking 10 Surfers 101 102 103 
Booking 341 Surfers 101 102 103 
Booking 324 Surfers 101 102 103 
Booking 299 Surfers 101 102 103 
Booking 203 Surfers 101 102 103 
Booking 356 Surfers 101 102 103 
Booking 18 Surfers 101 102 103 
Booking 206 Surfers 101 102 103 
Booking 171 Surfers 101 102 103 
Booking 24 Surfers 101 102 103 
Booking 61 Surfers 101 102 103 
Booking 160 Surfers 101 102 103 
Booking 221 Surfers 101 102 103 
Booking 46 Surfers 101 102 103 
Booking 261 Surfers 101 102 103 
Booking 11 Surfers 101 102 103 
Booking 294 Surfers 101 102 103 
Booking 69 Surfers 101 102 103 
Booking 262 Surfers 101 102 103 
Booking 123 Surfers 101 102 103 
Booking 256 Surfers 101 102 103 
Booking 345 Surfers 101 102 103 
Booking 178 Surfers 101 102 103 
Booking 231 Surfers 101 102 103 
Booking 332 Surfers 101 102 103 
Booking 283 Surfers 101 102 103 
Booking 189 Surfers 101 102 103 
Booking 22 Surfers 101 102 103 
Booking 28 Surfers 101 102 103 
Booking 12 Surfers 101 102 103 
Booking 68 Surfers 101 102 103 
Booking 168 Surfers 101 102 103 
Booking 219 Surfers 101 102 103 
Booking 52 Surfers 101 102 103 
Booking 254 Surfers 101 102 103 
Booking 59 Surfers 101 102 103 
Booking 26 Surfers 101 102 103 
Booking 44 Surfers 101 102 103 
Booking 5 Surfers 101 102 103 
Booking 15 Surfers 101 102 103 
Booking 101 Surfers 101 102 103 
Booking 39 Surfers 101 102 103 
Booking 260 Surfers 101 102 103 
Booking 195 Surfers 101 102 103 
Booking 125 Surfers 101 102 103 
Booking 319 Surfers 101 102 103 
Booking 143 Surfers 101 102 103 
Booking 48 Surfers 101 102 103 
Booking 109 Surfers 101 102 103 
Booking 150 Surfers 101 102 103 
Booking 66 Surfers 101 102 103 
Booking 118 Surfers 101 102 103 
Booking 269 Surfers 101 102 103 
Booking 40 Surfers 101 102 103 
Booking 155 Surfers 101 102 103 
Booking 32 Surfers 101 102 103 
Booking 187 Surfers 101 102 103 
Cancel 122
Cancel 113
Cancel 313
Cancel 66
Cancel 63
Cancel 73
Cancel 331
Cancel 32
Cancel 109
Cancel 262
Cancel 336
Cancel 268
Cancel 258
Cancel 55
Cancel 87
Cancel 162
Cancel 100
Cancel 4
Cancel 270
Cancel 33
Cancel 59
Cancel 171
Cancel 15
Cancel 193
Cancel 105
Cancel 53
Cancel 274
Cancel 276
Cancel 51
Cancel 284
Cancel 173
Cancel 220
Cancel 50
Cancel 194
Cancel 82
Cancel 249
Cancel 56
Cancel 214
Cancel 241
Cancel 285
Cancel 71
Cancel 293
Cancel 364
Cancel 13
Cancel 64
Cancel 204
Cancel 65
Cancel 344
Cancel 287
Cancel 207
Cancel 295
Cancel 52
Cancel 328
Cancel 89
Cancel 174
Cancel 211
Cancel 212
Cancel 149
Cancel 358
Cancel 37
Cancel 197
Cancel 125
Cancel 5
Cancel 288
Cancel 47
Cancel 160
Cancel 323
Cancel 72
Cancel 120
Cancel 353
Cancel 356
Cancel 135
Cancel 269
Cancel 184
Cancel 156
Cancel 25
Cancel 28
Cancel 213
Cancel 130
Cancel 320
Cancel 319
Cancel 316
Cancel 308
Cancel 195
Cancel 191
Cancel 57
Cancel 305
Cancel 151
Cancel 126
Cancel 146
Cancel 208
Cancel 38
Cancel 286
Cancel 30
Cancel 263
Cancel 242
Cancel 111
Cancel 330
Cancel 67
Cancel 80
Cancel 145
Cancel 239
Cancel 362
Cancel 85
Cancel 205
Cancel 158
Cancel 79
Cancel 357
Cancel 217
Cancel 36
Cancel 81
Cancel 27
Cancel 340
Cancel 206
Cancel 201
Cancel 315
Cancel 98
Cancel 95
Cancel 317
Cancel 235
Cancel 326
Cancel 297
Cancel 142
Cancel 338
Cancel 110
Cancel 11
Cancel 69
Cancel 129
Cancel 225
Cancel 345
Cancel 157
Cancel 332
Cancel 304
Cancel 107
Cancel 29
Cancel 94
Cancel 296
Cancel 339
Cancel 108
Cancel 281
Cancel 18
Cancel 168
Cancel 92
Cancel 144
Cancel 48
Cancel 22
Cancel 155
Cancel 83
Cancel 166
Cancel 231
Cancel 175
Cancel 70
Cancel 210
Cancel 192
Cancel 180
Cancel 41
Cancel 93
Cancel 226
Cancel 128
Cancel 170
Cancel 234
Cancel 76
Cancel 42
Cancel 161
Cancel 256
Cancel 309
Cancel 101
Cancel 189
Cancel 354
Cancel 253
Cancel 233
Cancel 232
Cancel 6
Cancel 43
Cancel 360
Cancel 294
Cancel 60
Cancel 7
Cancel 124
Cancel 167
Cancel 44
Cancel 190
Cancel 106
Cancel 77
Cancel 54
Cancel 248
Cancel 84
Cancel 202
Cancel 333
Cancel 240
Cancel 58
Cancel 335
Cancel 112
Cancel 261
Cancel 164
Cancel 348
Cancel 237
Cancel 10
Cancel 88
Cancel 39
Cancel 355
Cancel 203
Cancel 62
Cancel 178
Cancel 153
Cancel 133
Cancel 131
Cancel 271
Cancel 140
Cancel 209
Cancel 255
Cancel 179
Cancel 172
Cancel 132
Cancel 9
Cancel 247
Cancel 61
Cancel 169
Cancel 90
Cancel 298
Cancel 35
Cancel 221
Cancel 301
Cancel 3
Cancel 346
Cancel 361
Cancel 117
Cancel 224
Cancel 278
Cancel 325
Cancel 34
Cancel 349
Cancel 230
Cancel 1
Cancel 123
Cancel 75
Cancel 250
Cancel 91
Cancel 260
Cancel 196
Cancel 227
Cancel 163
Cancel 119
Cancel 363
Cancel 228
Cancel 218
Cancel 254
Cancel 183
Cancel 299
Cancel 275
Cancel 343
Cancel 139
Cancel 104
Cancel 150
Cancel 257
Cancel 115
Cancel 103
Cancel 359
Cancel 245
Cancel 114
Cancel 116
Cancel 265
Cancel 337
Cancel 45
Cancel 322
Cancel 78
Cancel 152
Cancel 351
Cancel 272
Cancel 307
Cancel 181
Cancel 289
Cancel 99
Cancel 291
Cancel 187
Cancel 267
Cancel 137
Cancel 264
Cancel 243
Cancel 17
Cancel 266
Cancel 229
Cancel 312
Cancel 20
Cancel 12
Cancel 21
Cancel 223
Cancel 159
Cancel 279
Cancel 68
Cancel 238
Cancel 177
Cancel 244
Cancel 97
Cancel 215
Cancel 347
Cancel 24
Cancel 96
Cancel 292
Cancel 118
Cancel 121
Cancel 138
Cancel 219
Cancel 302
Cancel 251
Cancel 188
Cancel 252
Cancel 185
Cancel 329
Cancel 282
Cancel 199
Cancel 283
Cancel 310
Cancel 327
Cancel 198
Cancel 8
Cancel 102
Cancel 86
Cancel 200
Cancel 300
Cancel 31
Cancel 143
Cancel 216
Cancel 290
Cancel 182
Cancel 311
Cancel 46
Cancel 154
Cancel 306
Cancel 321
Cancel 16
Cancel 148
Cancel 40
Cancel 352
Cancel 334
Cancel 277
Cancel 342
Cancel 26
Cancel 2
Cancel 74
Cancel 147
Cancel 19
Cancel 318
Cancel 186
Cancel 314
Cancel 259
Cancel 49
Cancel 273
Cancel 134
Cancel 236
Cancel 136
Cancel 176
Cancel 341
Cancel 0
Cancel 141
Cancel 222
Cancel 165
Cancel 280
Cancel 127
Cancel 350
Cancel 14
Cancel 246
Cancel 23
Cancel 324
Cancel 303
Surfers 101 
Surfers 102 
Surfers 103 